%!PS-Adobe-3.0 EPSF-3.0
%%Title: /home/mateusz/text/objective_function.eps
%%Creator: matplotlib version 1.5.3, http://matplotlib.org/
%%CreationDate: Thu Dec  1 09:23:41 2016
%%Orientation: portrait
%%BoundingBox: 18 180 594 612
%%EndComments
%%BeginProlog
/mpldict 8 dict def
mpldict begin
/m { moveto } bind def
/l { lineto } bind def
/r { rlineto } bind def
/c { curveto } bind def
/cl { closepath } bind def
/box {
m
1 index 0 r
0 exch r
neg 0 r
cl
} bind def
/clipbox {
box
clip
newpath
} bind def
%!PS-Adobe-3.0 Resource-Font
%%Title: Bitstream Vera Sans
%%Copyright: Copyright (c) 2003 by Bitstream, Inc. All Rights Reserved.
%%Creator: Converted from TrueType to type 3 by PPR
25 dict begin
/_d{bind def}bind def
/_m{moveto}_d
/_l{lineto}_d
/_cl{closepath eofill}_d
/_c{curveto}_d
/_sc{7 -1 roll{setcachedevice}{pop pop pop pop pop pop}ifelse}_d
/_e{exec}_d
/FontName /BitstreamVeraSans-Roman def
/PaintType 0 def
/FontMatrix[.001 0 0 .001 0 0]def
/FontBBox[-183 -236 1287 928]def
/FontType 3 def
/Encoding [ /space /D /a /c /e /f /i /l /m /n /o /r /s /t /u /v ] def
/FontInfo 10 dict dup begin
/FamilyName (Bitstream Vera Sans) def
/FullName (Bitstream Vera Sans) def
/Notice (Copyright (c) 2003 by Bitstream, Inc. All Rights Reserved. Bitstream Vera is a trademark of Bitstream, Inc.) def
/Weight (Roman) def
/Version (Release 1.10) def
/ItalicAngle 0.0 def
/isFixedPitch false def
/UnderlinePosition -213 def
/UnderlineThickness 143 def
end readonly def
/CharStrings 16 dict dup begin
/space{318 0 0 0 0 0 _sc
}_d
/D{770 0 98 0 711 729 _sc
197 648 _m
197 81 _l
316 81 _l
416 81 490 103 537 149 _c
583 195 607 267 607 365 _c
607 463 583 534 537 580 _c
490 625 416 648 316 648 _c
197 648 _l
98 729 _m
301 729 _l
442 729 546 699 612 641 _c
678 582 711 490 711 365 _c
711 239 677 147 611 88 _c
545 29 441 0 301 0 _c
98 0 _l
98 729 _l
_cl}_d
/a{{613 0 60 -13 522 560 _sc
343 275 _m
270 275 220 266 192 250 _c
164 233 150 205 150 165 _c
150 133 160 107 181 89 _c
202 70 231 61 267 61 _c
317 61 357 78 387 114 _c
417 149 432 196 432 255 _c
432 275 _l
343 275 _l
522 312 _m
522 0 _l
432 0 _l
432 83 _l
411 49 385 25 355 10 _c
325 -5 287 -13 243 -13 _c
187 -13 142 2 109 33 _c
76 64 60 106 60 159 _c
}_e{60 220 80 266 122 298 _c
163 329 224 345 306 345 _c
432 345 _l
432 354 _l
432 395 418 427 391 450 _c
364 472 326 484 277 484 _c
245 484 215 480 185 472 _c
155 464 127 453 100 439 _c
100 522 _l
132 534 164 544 195 550 _c
226 556 256 560 286 560 _c
365 560 424 539 463 498 _c
502 457 522 395 522 312 _c
_cl}_e}_d
/c{{550 0 55 -13 488 560 _sc
488 526 _m
488 442 _l
462 456 437 466 411 473 _c
385 480 360 484 334 484 _c
276 484 230 465 198 428 _c
166 391 150 339 150 273 _c
150 206 166 154 198 117 _c
230 80 276 62 334 62 _c
360 62 385 65 411 72 _c
437 79 462 90 488 104 _c
488 21 _l
462 9 436 0 410 -5 _c
383 -10 354 -13 324 -13 _c
242 -13 176 12 128 64 _c
}_e{79 115 55 185 55 273 _c
55 362 79 432 128 483 _c
177 534 244 560 330 560 _c
358 560 385 557 411 551 _c
437 545 463 537 488 526 _c
_cl}_e}_d
/e{{615 0 55 -13 562 560 _sc
562 296 _m
562 252 _l
149 252 _l
153 190 171 142 205 110 _c
238 78 284 62 344 62 _c
378 62 412 66 444 74 _c
476 82 509 95 541 113 _c
541 28 _l
509 14 476 3 442 -3 _c
408 -9 373 -13 339 -13 _c
251 -13 182 12 131 62 _c
80 112 55 181 55 268 _c
55 357 79 428 127 481 _c
175 533 241 560 323 560 _c
397 560 455 536 498 489 _c
}_e{540 441 562 377 562 296 _c
472 322 _m
471 371 457 410 431 440 _c
404 469 368 484 324 484 _c
274 484 234 469 204 441 _c
174 413 156 373 152 322 _c
472 322 _l
_cl}_e}_d
/f{352 0 23 0 371 760 _sc
371 760 _m
371 685 _l
285 685 _l
253 685 230 678 218 665 _c
205 652 199 629 199 595 _c
199 547 _l
347 547 _l
347 477 _l
199 477 _l
199 0 _l
109 0 _l
109 477 _l
23 477 _l
23 547 _l
109 547 _l
109 585 _l
109 645 123 690 151 718 _c
179 746 224 760 286 760 _c
371 760 _l
_cl}_d
/i{278 0 94 0 184 760 _sc
94 547 _m
184 547 _l
184 0 _l
94 0 _l
94 547 _l
94 760 _m
184 760 _l
184 646 _l
94 646 _l
94 760 _l
_cl}_d
/l{278 0 94 0 184 760 _sc
94 760 _m
184 760 _l
184 0 _l
94 0 _l
94 760 _l
_cl}_d
/m{{974 0 91 0 889 560 _sc
520 442 _m
542 482 569 511 600 531 _c
631 550 668 560 711 560 _c
767 560 811 540 842 500 _c
873 460 889 403 889 330 _c
889 0 _l
799 0 _l
799 327 _l
799 379 789 418 771 444 _c
752 469 724 482 686 482 _c
639 482 602 466 575 435 _c
548 404 535 362 535 309 _c
535 0 _l
445 0 _l
445 327 _l
445 379 435 418 417 444 _c
398 469 369 482 331 482 _c
}_e{285 482 248 466 221 435 _c
194 404 181 362 181 309 _c
181 0 _l
91 0 _l
91 547 _l
181 547 _l
181 462 _l
201 495 226 520 255 536 _c
283 552 317 560 357 560 _c
397 560 430 550 458 530 _c
486 510 506 480 520 442 _c
_cl}_e}_d
/n{634 0 91 0 549 560 _sc
549 330 _m
549 0 _l
459 0 _l
459 327 _l
459 379 448 417 428 443 _c
408 469 378 482 338 482 _c
289 482 251 466 223 435 _c
195 404 181 362 181 309 _c
181 0 _l
91 0 _l
91 547 _l
181 547 _l
181 462 _l
202 494 227 519 257 535 _c
286 551 320 560 358 560 _c
420 560 468 540 500 501 _c
532 462 549 405 549 330 _c
_cl}_d
/o{612 0 55 -13 557 560 _sc
306 484 _m
258 484 220 465 192 427 _c
164 389 150 338 150 273 _c
150 207 163 156 191 118 _c
219 80 257 62 306 62 _c
354 62 392 80 420 118 _c
448 156 462 207 462 273 _c
462 337 448 389 420 427 _c
392 465 354 484 306 484 _c
306 560 _m
384 560 445 534 490 484 _c
534 433 557 363 557 273 _c
557 183 534 113 490 63 _c
445 12 384 -13 306 -13 _c
227 -13 165 12 121 63 _c
77 113 55 183 55 273 _c
55 363 77 433 121 484 _c
165 534 227 560 306 560 _c
_cl}_d
/r{411 0 91 0 411 560 _sc
411 463 _m
401 469 390 473 378 476 _c
366 478 353 480 339 480 _c
288 480 249 463 222 430 _c
194 397 181 350 181 288 _c
181 0 _l
91 0 _l
91 547 _l
181 547 _l
181 462 _l
199 495 224 520 254 536 _c
284 552 321 560 365 560 _c
371 560 378 559 386 559 _c
393 558 401 557 411 555 _c
411 463 _l
_cl}_d
/s{{521 0 54 -13 472 560 _sc
443 531 _m
443 446 _l
417 458 391 468 364 475 _c
336 481 308 485 279 485 _c
234 485 200 478 178 464 _c
156 450 145 430 145 403 _c
145 382 153 366 169 354 _c
185 342 217 330 265 320 _c
296 313 _l
360 299 405 279 432 255 _c
458 230 472 195 472 151 _c
472 100 452 60 412 31 _c
372 1 316 -13 246 -13 _c
216 -13 186 -10 154 -5 _c
}_e{122 0 89 8 54 20 _c
54 113 _l
87 95 120 82 152 74 _c
184 65 216 61 248 61 _c
290 61 323 68 346 82 _c
368 96 380 117 380 144 _c
380 168 371 187 355 200 _c
339 213 303 226 247 238 _c
216 245 _l
160 257 119 275 95 299 _c
70 323 58 356 58 399 _c
58 450 76 490 112 518 _c
148 546 200 560 268 560 _c
301 560 332 557 362 552 _c
391 547 418 540 443 531 _c
}_e{_cl}_e}_d
/t{392 0 27 0 368 702 _sc
183 702 _m
183 547 _l
368 547 _l
368 477 _l
183 477 _l
183 180 _l
183 135 189 106 201 94 _c
213 81 238 75 276 75 _c
368 75 _l
368 0 _l
276 0 _l
206 0 158 13 132 39 _c
106 65 93 112 93 180 _c
93 477 _l
27 477 _l
27 547 _l
93 547 _l
93 702 _l
183 702 _l
_cl}_d
/u{634 0 85 -13 543 547 _sc
85 216 _m
85 547 _l
175 547 _l
175 219 _l
175 167 185 129 205 103 _c
225 77 255 64 296 64 _c
344 64 383 79 411 110 _c
439 141 453 183 453 237 _c
453 547 _l
543 547 _l
543 0 _l
453 0 _l
453 84 _l
431 50 405 26 377 10 _c
348 -5 315 -13 277 -13 _c
214 -13 166 6 134 45 _c
101 83 85 140 85 216 _c
_cl}_d
/v{592 0 30 0 562 547 _sc
30 547 _m
125 547 _l
296 88 _l
467 547 _l
562 547 _l
357 0 _l
235 0 _l
30 547 _l
_cl}_d
end readonly def

/BuildGlyph
 {exch begin
 CharStrings exch
 2 copy known not{pop /.notdef}if
 true 3 1 roll get exec
 end}_d

/BuildChar {
 1 index /Encoding get exch get
 1 index /BuildGlyph get exec
}_d

FontName currentdict end definefont pop
end
%%EndProlog
mpldict begin
18 180 translate
576 432 0 0 clipbox
100000 setmiterlimit
gsave
0 0 m
576 0 l
576 432 l
0 432 l
cl
1.000 setgray
fill
grestore
gsave
72 43.2 m
518.4 43.2 l
518.4 388.8 l
72 388.8 l
cl
1.000 setgray
fill
grestore
1.000 setlinewidth
1 setlinejoin
2 setlinecap
[] 0 setdash
0.000 0.000 1.000 setrgbcolor
gsave
446.4 345.6 72 43.2 clipbox
72 223.811509 m
72.372 224.493551 l
72.744 224.191326 l
73.116 228.941688 l
73.488 226.505058 l
73.86 227.78219 l
74.232 237.487725 l
74.604 265.543251 l
74.976 242.141665 l
75.348 252.785977 l
75.72 231.386489 l
76.092 247.105497 l
76.464 216.491242 l
76.836 247.786777 l
77.208 251.329807 l
77.58 222.214669 l
77.952 248.472754 l
78.324 225.837977 l
78.696 223.916701 l
79.068 273.965731 l
79.44 231.979996 l
79.812 236.45923 l
80.184 223.101053 l
80.556 226.16351 l
80.928 244.058682 l
81.3 215.320235 l
81.672 236.462602 l
82.044 248.981722 l
82.416 241.597112 l
82.788 237.191959 l
83.532 219.984173 l
83.904 239.416026 l
84.276 224.875136 l
84.648 229.796362 l
85.02 241.056234 l
85.392 235.552294 l
85.764 240.011345 l
86.136 229.627711 l
86.508 207.459277 l
86.88 233.242833 l
87.252 219.582284 l
87.624 223.941575 l
87.996 219.822069 l
88.74 236.827821 l
89.112 226.964235 l
89.484 227.253121 l
89.856 245.545122 l
90.228 240.486193 l
90.6 216.40363 l
90.972 249.198107 l
91.344 219.408488 l
91.716 250.497439 l
92.088 221.972941 l
92.46 215.143415 l
92.832 256.766796 l
93.204 224.006929 l
93.576 233.329353 l
93.948 249.262617 l
94.32 215.909449 l
94.692 239.405662 l
95.064 245.832656 l
95.436 232.602344 l
95.808 233.789038 l
96.18 222.382179 l
96.552 242.613159 l
96.924 226.732515 l
97.296 221.524318 l
97.668 238.697499 l
98.04 249.366118 l
98.412 243.057895 l
98.784 205.646433 l
99.156 246.716911 l
99.528 249.98452 l
99.9 213.06926 l
100.272 218.761347 l
100.644 227.437371 l
101.016 215.877243 l
101.388 239.550913 l
101.76 223.805787 l
102.132 230.677856 l
102.504 219.022733 l
102.876 242.305051 l
103.248 228.881554 l
103.62 241.499572 l
103.992 241.788832 l
104.364 241.44233 l
104.736 261.952983 l
105.108 234.647708 l
105.48 244.122307 l
105.852 236.595131 l
106.224 222.610627 l
106.596 224.369957 l
106.968 232.686541 l
107.34 228.305871 l
107.712 229.842329 l
108.084 205.636527 l
108.456 230.970211 l
108.828 217.496507 l
109.2 216.672355 l
109.944 232.173498 l
110.316 224.616187 l
110.688 228.666122 l
111.06 218.126836 l
111.432 218.111373 l
111.804 221.634672 l
112.176 218.692262 l
112.548 221.72657 l
112.92 221.01466 l
113.292 222.963407 l
113.664 246.649874 l
114.036 224.769782 l
114.408 225.027436 l
114.78 212.650907 l
115.152 214.030501 l
115.524 224.634799 l
115.896 219.163264 l
116.268 224.426186 l
116.64 204.767298 l
117.012 219.542984 l
117.384 211.334893 l
117.756 226.184987 l
118.128 226.875098 l
118.5 212.036482 l
118.872 219.363146 l
119.244 221.602883 l
119.616 217.108961 l
119.988 205.166829 l
120.36 217.442477 l
120.732 224.444304 l
121.476 232.971144 l
121.848 225.612655 l
122.22 226.076758 l
122.592 222.949957 l
122.964 232.929494 l
123.708 223.702329 l
124.08 204.203926 l
124.452 206.882716 l
124.824 218.16212 l
125.196 223.430487 l
125.568 220.077073 l
125.94 220.463761 l
126.312 220.55567 l
126.684 232.013749 l
127.056 212.913975 l
127.428 224.345086 l
127.8 212.14677 l
128.172 214.081087 l
128.544 216.690236 l
128.916 208.349334 l
129.288 215.611015 l
129.66 212.227824 l
130.032 210.20136 l
130.404 217.596162 l
130.776 208.638163 l
131.148 223.588131 l
131.52 207.757931 l
131.892 199.59969 l
132.636 236.358075 l
133.008 238.178302 l
133.38 233.998064 l
133.752 224.350523 l
134.124 228.109357 l
134.496 226.056441 l
134.868 206.731697 l
135.24 216.972187 l
135.612 214.246881 l
135.984 234.871495 l
136.356 240.045549 l
136.728 217.032311 l
137.1 236.366391 l
137.844 215.959885 l
138.216 238.048083 l
138.588 224.767139 l
138.96 219.335507 l
139.332 230.81545 l
139.704 210.763705 l
140.076 209.907706 l
140.448 217.352988 l
140.82 227.434747 l
141.192 222.956782 l
141.564 229.951815 l
142.308 213.201089 l
142.68 218.556913 l
143.052 218.992765 l
143.796 239.282988 l
144.168 245.598862 l
144.54 231.572301 l
144.912 226.594893 l
145.284 223.314507 l
145.656 218.734917 l
146.028 221.789471 l
146.4 213.284635 l
146.772 237.156141 l
147.144 225.075993 l
147.516 235.673462 l
147.888 218.346125 l
148.26 208.056683 l
148.632 216.891552 l
149.004 214.967937 l
149.376 202.156741 l
149.748 219.075827 l
150.12 216.987733 l
150.492 216.704025 l
150.864 222.80954 l
151.236 217.189734 l
151.608 221.258479 l
151.98 215.883329 l
152.352 228.849672 l
152.724 231.943616 l
153.468 222.246953 l
153.84 209.603559 l
154.212 228.622668 l
154.584 223.361707 l
154.956 225.739198 l
155.328 217.828048 l
156.072 212.048932 l
156.444 212.051466 l
156.816 219.312965 l
157.188 218.776717 l
157.56 221.121936 l
157.932 217.505317 l
158.304 219.557676 l
158.676 214.352933 l
159.048 215.672762 l
159.42 209.223697 l
159.792 217.245592 l
160.164 228.843287 l
160.536 214.214966 l
161.28 207.925086 l
161.652 215.292384 l
162.024 226.439092 l
162.396 214.044345 l
162.768 218.940251 l
163.14 218.123622 l
163.512 218.430019 l
163.884 226.711385 l
164.256 220.139268 l
165 214.181808 l
165.372 207.791805 l
165.744 210.579321 l
166.116 211.092608 l
166.488 212.226208 l
166.86 224.004603 l
167.232 221.225065 l
167.604 221.306917 l
167.976 228.683572 l
168.348 224.47985 l
168.72 213.738289 l
169.092 217.989707 l
169.464 217.963063 l
169.836 219.128699 l
170.208 212.185058 l
170.58 221.146022 l
171.324 247.648611 l
171.696 229.123388 l
172.068 231.370382 l
172.44 212.347936 l
172.812 212.964304 l
173.184 209.880805 l
173.556 211.516932 l
173.928 219.693684 l
174.3 224.92458 l
174.672 224.487242 l
175.044 222.670236 l
175.416 212.284371 l
175.788 213.048064 l
176.904 228.316717 l
177.276 225.148254 l
177.648 230.418049 l
178.02 227.437668 l
178.392 210.748433 l
178.764 219.512046 l
179.508 226.01719 l
179.88 237.195567 l
180.252 234.678269 l
180.624 222.283211 l
180.996 238.887964 l
181.368 221.933747 l
181.74 247.563261 l
182.112 226.073975 l
182.484 227.097777 l
182.856 223.22251 l
183.228 231.645017 l
183.6 220.264753 l
183.972 219.974011 l
184.344 221.099783 l
184.716 204.05574 l
185.088 219.891519 l
185.46 218.070312 l
185.832 210.031867 l
186.204 229.662464 l
186.576 215.417515 l
186.948 213.958655 l
187.32 231.14138 l
187.692 214.03951 l
188.064 220.366107 l
188.436 229.773813 l
188.808 217.038199 l
189.18 232.217562 l
189.552 224.017667 l
189.924 223.330047 l
190.668 234.321915 l
191.04 234.262979 l
191.412 246.46307 l
191.784 234.889142 l
192.156 243.035749 l
192.528 239.944177 l
192.9 234.212196 l
193.272 230.239602 l
194.016 216.881422 l
194.388 226.314489 l
194.76 228.360765 l
195.132 225.3143 l
195.504 221.022943 l
195.876 225.613421 l
196.248 224.179422 l
196.62 229.941773 l
196.992 220.228976 l
197.364 228.118431 l
197.736 230.443577 l
198.108 223.785357 l
198.48 221.091897 l
198.852 229.139622 l
199.224 218.592849 l
199.596 215.862378 l
199.968 222.496603 l
200.34 220.729266 l
200.712 214.225489 l
201.084 225.60987 l
201.456 223.44343 l
202.2 233.006103 l
202.944 227.191726 l
203.316 221.743583 l
203.688 233.898485 l
204.06 216.644808 l
204.432 211.07355 l
204.804 221.493663 l
205.176 221.401351 l
205.548 226.808462 l
205.92 218.744526 l
206.292 218.927039 l
206.664 207.241639 l
207.036 224.391907 l
207.408 228.993203 l
207.78 224.958323 l
208.152 227.224056 l
208.524 223.01133 l
208.896 227.878638 l
209.268 220.781555 l
209.64 228.070952 l
210.012 241.855458 l
210.384 237.211462 l
210.756 227.312311 l
211.5 235.945238 l
211.872 227.098314 l
212.244 230.804746 l
212.616 236.771141 l
213.36 239.838533 l
213.732 239.887243 l
214.104 232.071076 l
215.22 217.487169 l
215.592 218.671461 l
216.336 230.052099 l
216.708 227.467299 l
217.08 220.654649 l
217.452 240.077139 l
217.824 224.939446 l
218.196 234.965262 l
218.568 248.587208 l
218.94 253.024303 l
219.312 243.366368 l
219.684 244.445489 l
220.056 243.864845 l
220.428 241.031751 l
221.172 228.157687 l
221.544 246.550055 l
222.288 230.433613 l
223.032 249.614442 l
223.404 236.29624 l
223.776 247.257395 l
224.52 241.121133 l
225.264 224.197118 l
225.636 243.621276 l
226.008 231.070511 l
226.38 233.729154 l
226.752 230.530209 l
227.124 232.372594 l
227.496 228.583613 l
227.868 226.571976 l
228.612 224.692144 l
228.984 225.98116 l
229.356 221.840184 l
229.728 235.444234 l
230.1 235.751255 l
230.844 221.082514 l
231.216 217.783453 l
231.588 217.989496 l
231.96 230.596899 l
232.332 220.041443 l
232.704 218.244946 l
233.448 223.131407 l
234.192 215.460678 l
234.564 231.659774 l
234.936 229.23117 l
235.308 235.316066 l
235.68 218.784024 l
236.052 238.187563 l
236.424 243.283722 l
236.796 240.124501 l
237.168 229.850283 l
237.54 223.182608 l
237.912 225.890981 l
238.656 241.448671 l
239.028 242.569012 l
239.4 244.072249 l
239.772 243.079023 l
240.144 232.196352 l
240.516 237.998273 l
240.888 227.105345 l
241.26 233.332981 l
241.632 227.500174 l
242.004 217.960957 l
242.748 240.960375 l
243.12 240.294476 l
243.492 237.760742 l
243.864 246.162859 l
244.236 237.417548 l
244.98 252.085259 l
245.724 232.781775 l
246.096 228.241176 l
246.468 217.933758 l
246.84 226.837283 l
247.212 223.363598 l
247.584 232.203986 l
247.956 228.671632 l
248.328 234.614709 l
248.7 230.688508 l
249.072 232.479732 l
249.444 228.588434 l
249.816 231.283632 l
250.188 238.765244 l
250.56 240.999218 l
250.932 231.44125 l
251.304 227.074167 l
251.676 236.122037 l
252.048 238.842817 l
252.42 233.38462 l
252.792 239.277481 l
253.164 229.304031 l
253.536 225.809497 l
253.908 226.622279 l
254.28 223.857319 l
254.652 223.140628 l
255.024 218.149397 l
255.396 216.347706 l
255.768 216.803626 l
256.14 226.779894 l
256.512 221.856761 l
256.884 232.660127 l
257.256 232.864074 l
257.628 234.899875 l
258 234.998995 l
258.372 219.599787 l
258.744 221.638059 l
259.488 231.64226 l
259.86 231.557908 l
260.232 225.500874 l
260.604 224.969416 l
260.976 216.007407 l
261.348 226.96315 l
261.72 227.147393 l
262.092 243.823339 l
262.464 240.325149 l
262.836 242.940378 l
263.208 224.37223 l
263.58 224.411751 l
263.952 214.863964 l
264.324 229.074181 l
264.696 234.86625 l
265.068 234.878149 l
265.44 227.258405 l
265.812 223.821159 l
266.184 227.197445 l
266.556 231.735505 l
267.3 228.608463 l
267.672 233.622888 l
268.044 231.821204 l
268.416 248.496277 l
268.788 231.128023 l
269.16 232.496464 l
269.532 238.035506 l
270.276 242.865844 l
270.648 238.011415 l
271.02 238.015939 l
271.392 223.855084 l
271.764 233.387713 l
272.136 220.239255 l
272.508 226.874395 l
272.88 229.78394 l
273.252 231.724839 l
273.624 235.625326 l
273.996 223.971594 l
274.74 215.693523 l
275.112 204.62383 l
275.484 204.595045 l
275.856 211.198779 l
276.228 215.1651 l
276.972 236.533487 l
277.344 227.48025 l
277.716 222.537363 l
278.46 232.468318 l
278.832 233.667128 l
279.204 231.12106 l
279.576 226.113102 l
279.948 226.073518 l
280.32 230.160817 l
280.692 236.743917 l
281.064 225.678659 l
281.436 234.346714 l
281.808 239.534949 l
282.18 221.988726 l
282.552 226.250963 l
282.924 223.602611 l
283.296 227.813667 l
284.04 227.476971 l
284.412 226.820204 l
284.784 221.952697 l
285.156 235.161763 l
285.9 228.145956 l
286.272 228.703577 l
286.644 230.583132 l
287.016 223.983204 l
287.388 237.240026 l
287.76 222.948484 l
288.132 229.570078 l
288.504 234.135046 l
288.876 231.716546 l
289.248 234.681198 l
289.62 234.338353 l
289.992 230.312247 l
290.364 227.99949 l
290.736 216.543886 l
291.108 235.850348 l
291.48 226.020912 l
291.852 228.098551 l
292.596 218.988888 l
292.968 222.630897 l
293.34 224.980509 l
294.084 222.531452 l
294.456 223.927789 l
294.828 219.772325 l
295.2 225.782901 l
295.572 218.738024 l
295.944 229.14268 l
296.316 229.398016 l
296.688 222.976665 l
297.06 235.784293 l
297.432 226.169505 l
297.804 223.073396 l
298.176 238.185971 l
298.548 226.988171 l
298.92 229.486766 l
299.292 226.893255 l
299.664 217.766769 l
300.036 220.750393 l
300.408 214.953482 l
300.78 229.622135 l
301.152 220.853655 l
301.524 231.279746 l
301.896 228.000965 l
302.268 238.580411 l
302.64 235.489919 l
303.012 219.986803 l
303.384 225.720567 l
303.756 220.506684 l
304.128 221.358918 l
304.5 231.548083 l
304.872 234.420172 l
305.244 231.361238 l
305.988 229.875661 l
306.36 241.556147 l
306.732 238.738585 l
307.104 231.804184 l
307.476 234.266886 l
308.22 224.466969 l
308.592 224.547501 l
308.964 231.660904 l
309.336 223.541937 l
309.708 221.868977 l
310.08 216.117011 l
310.452 228.940195 l
310.824 234.321645 l
311.196 219.457013 l
311.568 220.316247 l
311.94 222.5632 l
312.312 216.487586 l
312.684 223.216805 l
313.056 225.721354 l
313.428 225.047436 l
313.8 227.967734 l
314.172 218.344959 l
314.544 227.307592 l
314.916 231.142284 l
315.66 220.701746 l
316.032 224.946451 l
316.404 223.746833 l
316.776 228.834607 l
317.148 226.837608 l
317.52 235.630701 l
317.892 213.592135 l
318.264 229.783252 l
318.636 231.170544 l
319.008 229.338064 l
319.752 223.92199 l
320.124 225.730409 l
320.496 232.852368 l
320.868 227.679573 l
321.24 229.168923 l
321.612 237.356871 l
321.984 223.807471 l
322.356 222.128189 l
322.728 215.440434 l
323.1 235.878592 l
323.472 228.471774 l
323.844 232.140561 l
324.216 229.557355 l
324.588 222.128915 l
324.96 235.803562 l
325.332 219.693794 l
325.704 221.448087 l
326.076 222.387338 l
326.448 224.609164 l
326.82 232.656805 l
327.192 221.415113 l
327.564 221.679916 l
327.936 232.786575 l
328.308 229.038346 l
328.68 230.282256 l
329.052 217.972237 l
329.424 225.330784 l
329.796 224.568832 l
330.54 237.617909 l
331.284 219.76821 l
331.656 229.874361 l
332.028 227.442892 l
332.4 220.943377 l
333.144 229.408618 l
333.516 223.815008 l
333.888 229.747189 l
334.26 226.59247 l
334.632 227.055748 l
335.004 235.556643 l
335.376 227.930154 l
335.748 233.686138 l
336.12 224.322039 l
336.492 224.14423 l
336.864 231.754515 l
337.236 233.985724 l
337.608 233.15799 l
337.98 226.730681 l
338.352 241.357752 l
339.096 220.634376 l
339.468 229.838404 l
339.84 232.651615 l
340.212 221.164339 l
340.584 228.900952 l
341.328 220.978072 l
341.7 229.848927 l
342.072 221.077003 l
342.444 229.425543 l
342.816 229.931502 l
343.188 234.153361 l
343.56 220.724546 l
343.932 225.028039 l
344.304 237.451056 l
344.676 228.219382 l
345.048 227.183027 l
345.42 230.989926 l
345.792 224.799551 l
346.164 227.711034 l
346.536 237.155115 l
347.28 226.33598 l
347.652 225.998605 l
348.024 225.84263 l
348.396 222.462436 l
348.768 223.400099 l
349.14 225.360115 l
349.512 223.436578 l
349.884 228.322537 l
350.256 223.950226 l
350.628 228.512456 l
351 241.701755 l
351.372 228.163726 l
351.744 238.336369 l
352.116 225.688178 l
352.86 228.396528 l
353.232 232.637485 l
353.604 230.394552 l
353.976 235.124377 l
354.348 216.911714 l
354.72 232.438027 l
355.092 227.426697 l
355.836 231.915765 l
356.208 242.423156 l
356.58 233.445122 l
356.952 241.45698 l
357.324 235.721953 l
357.696 234.582438 l
358.068 241.567505 l
358.44 237.004775 l
358.812 219.815007 l
359.184 230.776524 l
359.556 226.86174 l
359.928 220.001522 l
360.3 226.877979 l
360.672 228.06781 l
361.416 244.082386 l
362.16 231.159104 l
362.532 234.62283 l
362.904 239.582151 l
363.276 228.241323 l
363.648 239.513379 l
364.02 234.015712 l
364.764 245.183146 l
365.136 256.101038 l
365.508 243.73022 l
365.88 238.221955 l
366.252 239.777578 l
366.624 248.433101 l
366.996 243.698525 l
367.368 226.028656 l
367.74 228.381388 l
368.112 239.150352 l
368.484 236.925082 l
368.856 236.497722 l
369.228 240.019241 l
369.6 245.409916 l
369.972 245.501762 l
370.716 240.921335 l
371.088 247.841811 l
371.46 232.459762 l
371.832 243.596386 l
372.204 225.101198 l
372.576 234.837387 l
372.948 235.09386 l
373.32 238.741315 l
373.692 245.261615 l
374.064 245.761542 l
374.436 243.539729 l
374.808 257.945444 l
375.18 243.122225 l
375.552 245.22519 l
375.924 240.554599 l
376.296 253.548873 l
376.668 237.510423 l
377.04 232.027151 l
377.412 237.758513 l
377.784 238.148239 l
378.156 237.988187 l
378.528 241.971463 l
378.9 241.835263 l
379.272 242.789419 l
379.644 251.019924 l
380.016 237.150078 l
380.388 235.567862 l
380.76 239.213795 l
381.132 251.472465 l
381.504 250.085005 l
381.876 238.203004 l
382.248 256.260436 l
382.62 245.489572 l
382.992 238.688479 l
383.364 234.365906 l
383.736 235.16054 l
384.108 246.350143 l
384.48 236.585236 l
384.852 247.875988 l
385.224 236.291544 l
385.596 231.512652 l
386.34 261.14525 l
386.712 244.427257 l
387.084 247.061269 l
387.456 252.103425 l
387.828 253.580435 l
388.2 259.90641 l
388.572 241.285944 l
388.944 243.418317 l
389.316 241.187157 l
389.688 250.450977 l
390.06 263.870971 l
390.432 246.022268 l
390.804 247.961984 l
391.176 250.849501 l
391.548 252.380567 l
391.92 248.452335 l
392.292 257.496267 l
392.664 251.234783 l
393.036 247.84175 l
393.408 235.448637 l
393.78 248.527583 l
394.152 232.672204 l
394.524 227.131227 l
394.896 236.754015 l
395.268 242.116135 l
395.64 250.62665 l
396.012 253.083081 l
396.384 265.057789 l
396.756 247.767228 l
397.128 239.227717 l
397.5 240.749874 l
397.872 229.219375 l
398.244 253.420807 l
398.988 239.692801 l
399.36 252.623938 l
399.732 244.296635 l
400.104 247.199723 l
400.476 242.888904 l
400.848 246.248389 l
401.22 254.153064 l
401.592 271.768826 l
401.964 242.320977 l
402.336 250.327734 l
402.708 248.356074 l
403.08 252.391109 l
403.452 265.815978 l
403.824 244.621115 l
404.196 258.633567 l
404.568 241.3664 l
404.94 232.987214 l
405.312 237.944244 l
405.684 271.770035 l
406.056 263.498376 l
406.8 238.753911 l
407.172 251.920738 l
407.544 271.625213 l
407.916 258.119273 l
408.288 262.705039 l
408.66 247.906001 l
409.032 243.46978 l
409.404 254.38683 l
409.776 244.697341 l
410.148 241.783626 l
410.52 240.937693 l
410.892 247.746575 l
411.264 258.744411 l
412.008 270.203895 l
412.752 256.611509 l
413.124 269.241767 l
413.496 255.32513 l
413.868 261.472125 l
414.24 259.140813 l
414.612 235.035998 l
414.984 252.201032 l
415.356 242.680081 l
415.728 240.058303 l
416.1 238.980971 l
416.472 243.319347 l
417.216 267.835573 l
417.588 267.607213 l
417.96 259.582588 l
418.332 266.942561 l
418.704 255.989375 l
419.076 274.646282 l
419.448 256.558026 l
419.82 251.982798 l
420.192 259.468788 l
420.564 241.703246 l
420.936 275.609116 l
421.308 244.133304 l
422.052 272.951022 l
422.424 283.18771 l
423.168 263.840393 l
423.54 259.640762 l
423.912 286.783935 l
424.284 272.955654 l
425.028 262.604176 l
425.4 275.170539 l
426.144 248.865179 l
426.516 268.351278 l
426.888 262.370064 l
427.26 265.382319 l
427.632 276.255404 l
428.004 266.503597 l
428.376 278.360069 l
429.12 247.479066 l
429.492 257.023425 l
429.864 256.532912 l
430.236 289.050941 l
430.608 257.235075 l
430.98 272.139312 l
431.352 256.254604 l
431.724 273.044385 l
432.096 268.109652 l
432.468 257.586293 l
432.84 263.24835 l
433.212 259.434785 l
433.956 248.154526 l
434.328 263.709279 l
434.7 256.062993 l
435.072 272.737949 l
435.444 249.826167 l
435.816 276.80833 l
436.188 262.847509 l
436.56 270.709538 l
436.932 269.186381 l
437.304 248.119981 l
437.676 294.965718 l
438.048 291.069904 l
438.42 260.892043 l
438.792 286.392151 l
439.164 252.273725 l
439.536 269.011819 l
439.908 261.617543 l
440.28 270.124386 l
440.652 251.132751 l
441.024 257.849553 l
441.396 261.318679 l
441.768 276.497924 l
442.14 261.27931 l
442.512 266.410677 l
442.884 282.480738 l
443.256 261.45458 l
443.628 270.415553 l
444 297.775317 l
444.372 262.256335 l
444.744 272.929791 l
445.116 296.538236 l
445.488 283.736128 l
445.86 303.722762 l
446.232 254.898207 l
446.604 263.115774 l
446.976 256.243082 l
447.348 289.192375 l
447.72 305.133385 l
448.092 268.68683 l
448.464 267.128369 l
448.836 279.898636 l
449.208 267.355044 l
449.58 270.204544 l
449.952 257.284196 l
450.324 257.139936 l
450.696 262.786031 l
451.068 251.076652 l
451.44 278.901566 l
451.812 272.816793 l
452.184 275.79788 l
452.556 248.721462 l
452.928 261.108582 l
453.3 294.294593 l
454.044 244.17657 l
454.416 251.222726 l
454.788 294.483773 l
455.16 280.066351 l
455.532 278.891885 l
455.904 288.177083 l
456.276 280.331063 l
456.648 282.215483 l
457.02 262.561087 l
457.392 281.546592 l
458.136 252.053489 l
458.508 269.209122 l
458.88 272.92437 l
459.252 285.671223 l
459.624 277.102942 l
459.996 276.270417 l
460.368 272.349799 l
460.74 304.779197 l
461.112 277.02957 l
461.484 301.492306 l
461.856 281.801549 l
462.228 268.505397 l
462.6 266.130681 l
462.972 260.266393 l
463.344 284.776942 l
463.716 291.008551 l
464.088 282.6235 l
464.46 278.381975 l
464.832 304.455194 l
465.204 255.439424 l
465.576 289.763329 l
465.576 289.763329 l
stroke
grestore
0 setlinejoin
0.000 setgray
gsave
72 388.8 m
518.4 388.8 l
stroke
grestore
gsave
518.4 43.2 m
518.4 388.8 l
stroke
grestore
gsave
72 43.2 m
518.4 43.2 l
stroke
grestore
gsave
72 43.2 m
72 388.8 l
stroke
grestore
0 setlinecap
gsave
260.4225 356.533125 m
511.2 356.533125 l
511.2 381.6 l
260.4225 381.6 l
cl
gsave
1.000 setgray
fill
grestore
stroke
grestore
1 setlinejoin
2 setlinecap
0.000 0.000 1.000 setrgbcolor
gsave
270.5025 370.239375 m
290.6625 370.239375 l
stroke
grestore
0.000 setgray
/BitstreamVeraSans-Roman findfont
14.400 scalefont
setfont
gsave
306.502500 365.199375 translate
0.000000 rotate
0.000000 0.000000 m /D glyphshow
11.081055 0.000000 m /i glyphshow
15.079224 0.000000 m /s glyphshow
22.576675 0.000000 m /c glyphshow
30.488708 0.000000 m /r glyphshow
36.405167 0.000000 m /i glyphshow
40.403336 0.000000 m /m glyphshow
54.421539 0.000000 m /i glyphshow
58.419708 0.000000 m /n glyphshow
67.540329 0.000000 m /a glyphshow
76.358795 0.000000 m /t glyphshow
82.001205 0.000000 m /i glyphshow
85.999374 0.000000 m /v glyphshow
94.515701 0.000000 m /e glyphshow
103.369308 0.000000 m /space glyphshow
107.943665 0.000000 m /l glyphshow
111.941833 0.000000 m /o glyphshow
120.746246 0.000000 m /s glyphshow
128.243698 0.000000 m /s glyphshow
135.741150 0.000000 m /space glyphshow
140.315506 0.000000 m /f glyphshow
145.381729 0.000000 m /u glyphshow
154.502350 0.000000 m /n glyphshow
163.622971 0.000000 m /c glyphshow
171.535004 0.000000 m /t glyphshow
177.177414 0.000000 m /i glyphshow
181.175583 0.000000 m /o glyphshow
189.979996 0.000000 m /n glyphshow
grestore

end
showpage
