%!PS-Adobe-3.0 EPSF-3.0
%%Title: /home/mateusz/text/reconstruction_error.eps
%%Creator: matplotlib version 1.5.3, http://matplotlib.org/
%%CreationDate: Wed Nov 30 07:46:41 2016
%%Orientation: portrait
%%BoundingBox: 18 180 594 612
%%EndComments
%%BeginProlog
/mpldict 8 dict def
mpldict begin
/m { moveto } bind def
/l { lineto } bind def
/r { rlineto } bind def
/c { curveto } bind def
/cl { closepath } bind def
/box {
m
1 index 0 r
0 exch r
neg 0 r
cl
} bind def
/clipbox {
box
clip
newpath
} bind def
%!PS-Adobe-3.0 Resource-Font
%%Title: Bitstream Vera Sans
%%Copyright: Copyright (c) 2003 by Bitstream, Inc. All Rights Reserved.
%%Creator: Converted from TrueType to type 3 by PPR
25 dict begin
/_d{bind def}bind def
/_m{moveto}_d
/_l{lineto}_d
/_cl{closepath eofill}_d
/_c{curveto}_d
/_sc{7 -1 roll{setcachedevice}{pop pop pop pop pop pop}ifelse}_d
/_e{exec}_d
/FontName /BitstreamVeraSans-Roman def
/PaintType 0 def
/FontMatrix[.001 0 0 .001 0 0]def
/FontBBox[-183 -236 1287 928]def
/FontType 3 def
/Encoding [ /space /hyphen /C /c /e /i /n /o /p /r /s /t /u /y ] def
/FontInfo 10 dict dup begin
/FamilyName (Bitstream Vera Sans) def
/FullName (Bitstream Vera Sans) def
/Notice (Copyright (c) 2003 by Bitstream, Inc. All Rights Reserved. Bitstream Vera is a trademark of Bitstream, Inc.) def
/Weight (Roman) def
/Version (Release 1.10) def
/ItalicAngle 0.0 def
/isFixedPitch false def
/UnderlinePosition -213 def
/UnderlineThickness 143 def
end readonly def
/CharStrings 14 dict dup begin
/space{318 0 0 0 0 0 _sc
}_d
/hyphen{361 0 49 234 312 314 _sc
49 314 _m
312 314 _l
312 234 _l
49 234 _l
49 314 _l
_cl}_d
/C{{698 0 56 -13 644 742 _sc
644 673 _m
644 569 _l
610 599 575 622 537 638 _c
499 653 460 661 418 661 _c
334 661 270 635 226 584 _c
182 533 160 460 160 364 _c
160 268 182 194 226 143 _c
270 92 334 67 418 67 _c
460 67 499 74 537 90 _c
575 105 610 128 644 159 _c
644 56 _l
609 32 572 15 534 4 _c
496 -7 455 -13 412 -13 _c
302 -13 215 20 151 87 _c
}_e{87 154 56 246 56 364 _c
56 481 87 573 151 641 _c
215 708 302 742 412 742 _c
456 742 497 736 535 725 _c
573 713 610 696 644 673 _c
_cl}_e}_d
/c{{550 0 55 -13 488 560 _sc
488 526 _m
488 442 _l
462 456 437 466 411 473 _c
385 480 360 484 334 484 _c
276 484 230 465 198 428 _c
166 391 150 339 150 273 _c
150 206 166 154 198 117 _c
230 80 276 62 334 62 _c
360 62 385 65 411 72 _c
437 79 462 90 488 104 _c
488 21 _l
462 9 436 0 410 -5 _c
383 -10 354 -13 324 -13 _c
242 -13 176 12 128 64 _c
}_e{79 115 55 185 55 273 _c
55 362 79 432 128 483 _c
177 534 244 560 330 560 _c
358 560 385 557 411 551 _c
437 545 463 537 488 526 _c
_cl}_e}_d
/e{{615 0 55 -13 562 560 _sc
562 296 _m
562 252 _l
149 252 _l
153 190 171 142 205 110 _c
238 78 284 62 344 62 _c
378 62 412 66 444 74 _c
476 82 509 95 541 113 _c
541 28 _l
509 14 476 3 442 -3 _c
408 -9 373 -13 339 -13 _c
251 -13 182 12 131 62 _c
80 112 55 181 55 268 _c
55 357 79 428 127 481 _c
175 533 241 560 323 560 _c
397 560 455 536 498 489 _c
}_e{540 441 562 377 562 296 _c
472 322 _m
471 371 457 410 431 440 _c
404 469 368 484 324 484 _c
274 484 234 469 204 441 _c
174 413 156 373 152 322 _c
472 322 _l
_cl}_e}_d
/i{278 0 94 0 184 760 _sc
94 547 _m
184 547 _l
184 0 _l
94 0 _l
94 547 _l
94 760 _m
184 760 _l
184 646 _l
94 646 _l
94 760 _l
_cl}_d
/n{634 0 91 0 549 560 _sc
549 330 _m
549 0 _l
459 0 _l
459 327 _l
459 379 448 417 428 443 _c
408 469 378 482 338 482 _c
289 482 251 466 223 435 _c
195 404 181 362 181 309 _c
181 0 _l
91 0 _l
91 547 _l
181 547 _l
181 462 _l
202 494 227 519 257 535 _c
286 551 320 560 358 560 _c
420 560 468 540 500 501 _c
532 462 549 405 549 330 _c
_cl}_d
/o{612 0 55 -13 557 560 _sc
306 484 _m
258 484 220 465 192 427 _c
164 389 150 338 150 273 _c
150 207 163 156 191 118 _c
219 80 257 62 306 62 _c
354 62 392 80 420 118 _c
448 156 462 207 462 273 _c
462 337 448 389 420 427 _c
392 465 354 484 306 484 _c
306 560 _m
384 560 445 534 490 484 _c
534 433 557 363 557 273 _c
557 183 534 113 490 63 _c
445 12 384 -13 306 -13 _c
227 -13 165 12 121 63 _c
77 113 55 183 55 273 _c
55 363 77 433 121 484 _c
165 534 227 560 306 560 _c
_cl}_d
/p{{635 0 91 -207 580 560 _sc
181 82 _m
181 -207 _l
91 -207 _l
91 547 _l
181 547 _l
181 464 _l
199 496 223 520 252 536 _c
281 552 316 560 356 560 _c
422 560 476 533 518 481 _c
559 428 580 359 580 273 _c
580 187 559 117 518 65 _c
476 13 422 -13 356 -13 _c
316 -13 281 -5 252 10 _c
223 25 199 49 181 82 _c
487 273 _m
487 339 473 390 446 428 _c
418 466 381 485 334 485 _c
}_e{286 485 249 466 222 428 _c
194 390 181 339 181 273 _c
181 207 194 155 222 117 _c
249 79 286 61 334 61 _c
381 61 418 79 446 117 _c
473 155 487 207 487 273 _c
_cl}_e}_d
/r{411 0 91 0 411 560 _sc
411 463 _m
401 469 390 473 378 476 _c
366 478 353 480 339 480 _c
288 480 249 463 222 430 _c
194 397 181 350 181 288 _c
181 0 _l
91 0 _l
91 547 _l
181 547 _l
181 462 _l
199 495 224 520 254 536 _c
284 552 321 560 365 560 _c
371 560 378 559 386 559 _c
393 558 401 557 411 555 _c
411 463 _l
_cl}_d
/s{{521 0 54 -13 472 560 _sc
443 531 _m
443 446 _l
417 458 391 468 364 475 _c
336 481 308 485 279 485 _c
234 485 200 478 178 464 _c
156 450 145 430 145 403 _c
145 382 153 366 169 354 _c
185 342 217 330 265 320 _c
296 313 _l
360 299 405 279 432 255 _c
458 230 472 195 472 151 _c
472 100 452 60 412 31 _c
372 1 316 -13 246 -13 _c
216 -13 186 -10 154 -5 _c
}_e{122 0 89 8 54 20 _c
54 113 _l
87 95 120 82 152 74 _c
184 65 216 61 248 61 _c
290 61 323 68 346 82 _c
368 96 380 117 380 144 _c
380 168 371 187 355 200 _c
339 213 303 226 247 238 _c
216 245 _l
160 257 119 275 95 299 _c
70 323 58 356 58 399 _c
58 450 76 490 112 518 _c
148 546 200 560 268 560 _c
301 560 332 557 362 552 _c
391 547 418 540 443 531 _c
}_e{_cl}_e}_d
/t{392 0 27 0 368 702 _sc
183 702 _m
183 547 _l
368 547 _l
368 477 _l
183 477 _l
183 180 _l
183 135 189 106 201 94 _c
213 81 238 75 276 75 _c
368 75 _l
368 0 _l
276 0 _l
206 0 158 13 132 39 _c
106 65 93 112 93 180 _c
93 477 _l
27 477 _l
27 547 _l
93 547 _l
93 702 _l
183 702 _l
_cl}_d
/u{634 0 85 -13 543 547 _sc
85 216 _m
85 547 _l
175 547 _l
175 219 _l
175 167 185 129 205 103 _c
225 77 255 64 296 64 _c
344 64 383 79 411 110 _c
439 141 453 183 453 237 _c
453 547 _l
543 547 _l
543 0 _l
453 0 _l
453 84 _l
431 50 405 26 377 10 _c
348 -5 315 -13 277 -13 _c
214 -13 166 6 134 45 _c
101 83 85 140 85 216 _c
_cl}_d
/y{592 0 30 -207 562 547 _sc
322 -50 _m
296 -114 271 -157 247 -177 _c
223 -197 191 -207 151 -207 _c
79 -207 _l
79 -132 _l
132 -132 _l
156 -132 175 -126 189 -114 _c
203 -102 218 -75 235 -31 _c
251 9 _l
30 547 _l
125 547 _l
296 119 _l
467 547 _l
562 547 _l
322 -50 _l
_cl}_d
end readonly def

/BuildGlyph
 {exch begin
 CharStrings exch
 2 copy known not{pop /.notdef}if
 true 3 1 roll get exec
 end}_d

/BuildChar {
 1 index /Encoding get exch get
 1 index /BuildGlyph get exec
}_d

FontName currentdict end definefont pop
end
%%EndProlog
mpldict begin
18 180 translate
576 432 0 0 clipbox
100000 setmiterlimit
gsave
0 0 m
576 0 l
576 432 l
0 432 l
cl
1.000 setgray
fill
grestore
gsave
72 43.2 m
518.4 43.2 l
518.4 388.8 l
72 388.8 l
cl
1.000 setgray
fill
grestore
1.000 setlinewidth
1 setlinejoin
2 setlinecap
[] 0 setdash
0.000 0.000 1.000 setrgbcolor
gsave
446.4 345.6 72 43.2 clipbox
72 350.490574 m
72.127543 280.373271 l
72.255086 247.186799 l
72.382629 247.522503 l
72.510171 246.992115 l
72.8928 238.074429 l
73.020343 240.268468 l
73.147886 237.375305 l
73.275429 238.759973 l
73.402971 236.855513 l
73.530514 231.652614 l
73.658057 233.997047 l
73.913143 226.64933 l
74.040686 231.085445 l
74.295771 224.20408 l
74.550857 227.783007 l
74.6784 222.926156 l
74.933486 224.409972 l
75.061029 214.6126 l
75.188571 215.828701 l
75.316114 211.628677 l
75.5712 215.678285 l
75.698743 215.942385 l
75.826286 212.632354 l
75.953829 212.271826 l
76.081371 217.936908 l
76.208914 209.557813 l
76.336457 215.548255 l
76.464 210.540145 l
76.719086 215.256504 l
76.846629 208.836951 l
76.974171 214.965035 l
77.101714 207.015984 l
77.3568 213.614436 l
77.484343 206.319028 l
77.611886 212.512064 l
77.739429 199.92016 l
77.994514 205.968731 l
78.122057 205.336675 l
78.2496 205.863787 l
78.377143 204.616516 l
78.504686 207.719953 l
78.632229 199.916866 l
78.759771 207.560795 l
78.887314 198.53039 l
79.014857 202.539024 l
79.1424 200.597129 l
79.269943 195.360796 l
79.397486 204.022201 l
79.525029 193.535605 l
79.652571 201.778826 l
79.907657 193.632214 l
80.0352 198.302879 l
80.162743 193.883399 l
80.290286 199.675603 l
80.417829 188.272917 l
80.545371 199.765252 l
80.672914 190.362406 l
80.800457 197.455664 l
81.055543 194.574511 l
81.310629 188.074801 l
81.438171 198.606805 l
81.565714 184.93703 l
81.693257 195.152776 l
81.8208 187.914002 l
81.948343 192.617904 l
82.075886 183.909423 l
82.203429 193.131276 l
82.330971 185.392814 l
82.458514 190.823294 l
82.586057 187.65468 l
82.7136 190.68425 l
82.841143 184.204803 l
82.968686 190.454343 l
83.096229 182.238743 l
83.223771 182.326353 l
83.351314 182.869614 l
83.478857 185.195541 l
83.6064 179.277031 l
83.733943 183.40065 l
83.861486 177.956445 l
83.989029 178.911357 l
84.244114 173.470015 l
84.371657 181.234071 l
84.4992 175.148743 l
84.626743 179.599183 l
84.881829 173.907586 l
85.009371 176.227508 l
85.136914 174.647106 l
85.264457 174.764926 l
85.392 176.050501 l
85.519543 173.659404 l
85.647086 167.812775 l
85.774629 177.400825 l
85.902171 168.6994 l
86.029714 168.878418 l
86.157257 174.952606 l
86.2848 169.513829 l
86.412343 170.57541 l
86.539886 161.045219 l
86.667429 169.891226 l
86.794971 162.832566 l
86.922514 171.797187 l
87.050057 163.101776 l
87.1776 170.707997 l
87.305143 164.445815 l
87.432686 165.659165 l
87.560229 164.063245 l
87.687771 158.987859 l
87.815314 173.288622 l
87.942857 159.927378 l
88.0704 170.580585 l
88.197943 162.074944 l
88.325486 162.497055 l
88.453029 166.890502 l
88.580571 148.964479 l
88.708114 170.761414 l
88.835657 152.240491 l
89.090743 170.248204 l
89.218286 147.748693 l
89.345829 171.328529 l
89.473371 152.668301 l
89.600914 163.79489 l
89.728457 157.927038 l
89.856 158.54395 l
89.983543 160.076617 l
90.111086 148.669435 l
90.238629 166.493286 l
90.366171 147.637602 l
90.621257 163.917074 l
90.876343 148.946155 l
91.003886 169.248725 l
91.131429 150.669458 l
91.258971 164.538702 l
91.514057 148.140282 l
91.6416 172.260452 l
91.769143 150.070375 l
91.896686 160.754065 l
92.024229 156.809726 l
92.151771 157.211063 l
92.279314 162.369546 l
92.406857 148.854113 l
92.5344 169.922924 l
92.661943 147.393886 l
92.789486 161.5458 l
93.044571 144.921525 l
93.172114 167.866235 l
93.299657 151.394477 l
93.4272 158.262378 l
93.554743 142.72634 l
93.682286 159.418145 l
93.809829 152.482297 l
93.937371 153.661906 l
94.064914 157.366447 l
94.192457 144.614945 l
94.32 164.605251 l
94.447543 148.518179 l
94.575086 165.009724 l
94.702629 147.560319 l
94.830171 150.554677 l
94.957714 156.48625 l
95.085257 152.608412 l
95.2128 159.591501 l
95.340343 146.911499 l
95.467886 164.152832 l
95.595429 145.526898 l
95.722971 161.7629 l
95.978057 151.669221 l
96.1056 155.905963 l
96.233143 139.730039 l
96.360686 156.928456 l
96.488229 150.87119 l
96.615771 152.278069 l
96.743314 157.159222 l
96.870857 144.425643 l
96.9984 159.516061 l
97.253486 150.01939 l
97.381029 154.398706 l
97.508571 144.391255 l
97.636114 155.860634 l
97.763657 149.657771 l
98.018743 157.607779 l
98.146286 148.367337 l
98.273829 156.495618 l
98.401371 151.69864 l
98.528914 159.54758 l
98.656457 148.955367 l
98.784 153.443573 l
98.911543 153.126785 l
99.039086 149.678071 l
99.166629 160.055936 l
99.421714 150.756918 l
99.549257 151.399743 l
99.6768 147.468586 l
99.804343 154.12957 l
99.931886 147.59507 l
100.059429 153.677528 l
100.186971 145.59361 l
100.314514 155.432753 l
100.442057 149.760986 l
100.5696 151.574519 l
100.697143 159.394657 l
100.952229 142.98012 l
101.079771 154.960278 l
101.207314 149.725417 l
101.334857 155.419335 l
101.4624 142.48136 l
101.589943 149.627992 l
101.717486 150.449504 l
101.845029 149.747927 l
101.972571 155.569701 l
102.100114 144.87832 l
102.227657 149.700333 l
102.3552 140.989247 l
102.482743 153.010691 l
102.610286 146.5458 l
102.737829 148.233922 l
102.865371 152.036556 l
102.992914 142.156817 l
103.120457 156.344876 l
103.248 142.971474 l
103.375543 142.950341 l
103.503086 155.791979 l
103.630629 143.359257 l
103.758171 157.198408 l
104.013257 143.453366 l
104.1408 157.498625 l
104.268343 144.247035 l
104.395886 159.968745 l
104.523429 139.724965 l
104.650971 140.03685 l
104.778514 151.251373 l
104.906057 139.980729 l
105.161143 154.70412 l
105.288686 143.659325 l
105.416229 152.551192 l
105.543771 139.976666 l
105.671314 152.616284 l
105.9264 140.968257 l
106.053943 158.872378 l
106.181486 147.395234 l
106.309029 158.185949 l
106.436571 147.804905 l
106.564114 147.743979 l
106.691657 146.516469 l
106.8192 139.426559 l
106.946743 157.768868 l
107.074286 142.933173 l
107.329371 153.845311 l
107.456914 144.161875 l
107.584457 154.435071 l
107.839543 145.958392 l
107.967086 156.710126 l
108.094629 142.72923 l
108.222171 143.915374 l
108.349714 150.590223 l
108.477257 141.912859 l
108.6048 152.515323 l
108.732343 138.554312 l
108.987429 148.590409 l
109.114971 139.766851 l
109.242514 152.492556 l
109.370057 142.775504 l
109.625143 149.661447 l
109.752686 142.529628 l
109.880229 149.26088 l
110.007771 140.21975 l
110.135314 149.429005 l
110.262857 145.68665 l
110.3904 145.852141 l
110.517943 148.826358 l
110.645486 137.949298 l
110.773029 151.073717 l
110.900571 138.500046 l
111.028114 150.330889 l
111.155657 139.973932 l
111.410743 150.471497 l
111.538286 140.886857 l
111.665829 151.024588 l
111.793371 137.93974 l
111.920914 139.65907 l
112.048457 150.962462 l
112.176 141.090487 l
112.303543 150.146605 l
112.431086 141.210524 l
112.558629 144.866975 l
112.686171 145.095548 l
112.813714 138.652873 l
112.941257 147.511235 l
113.196343 143.119967 l
113.323886 149.961725 l
113.451429 137.617985 l
113.578971 147.033562 l
113.706514 142.692393 l
113.834057 148.698238 l
114.089143 140.347326 l
114.216686 143.019354 l
114.344229 137.937417 l
114.471771 144.374114 l
114.599314 136.762251 l
114.726857 137.05109 l
114.8544 149.421178 l
114.981943 141.46079 l
115.109486 144.776217 l
115.237029 144.717873 l
115.364571 145.599715 l
115.492114 141.773069 l
115.619657 142.966601 l
115.7472 147.79999 l
115.874743 139.203188 l
116.002286 145.282384 l
116.129829 142.872898 l
116.257371 147.702335 l
116.512457 140.40125 l
116.64 147.616911 l
116.767543 135.148238 l
116.895086 145.192063 l
117.022629 138.675546 l
117.150171 146.42093 l
117.405257 140.651985 l
117.5328 146.319598 l
117.660343 141.817999 l
117.787886 143.674205 l
117.915429 142.320207 l
118.042971 147.931035 l
118.298057 142.621456 l
118.4256 149.406172 l
118.553143 144.81072 l
118.680686 146.348643 l
118.935771 139.41478 l
119.063314 148.229271 l
119.190857 143.657521 l
119.3184 151.743703 l
119.445943 146.383855 l
119.573486 149.290724 l
119.828571 141.37561 l
120.2112 147.18707 l
120.338743 142.47166 l
120.466286 149.302087 l
120.593829 138.56296 l
120.721371 146.478171 l
120.848914 142.693136 l
120.976457 143.483571 l
121.104 150.443739 l
121.231543 146.508783 l
121.359086 147.208228 l
121.486629 139.258971 l
121.869257 147.744923 l
122.124343 139.900997 l
122.251886 148.948986 l
122.379429 139.197413 l
122.634514 146.680733 l
122.762057 135.851107 l
122.8896 145.49635 l
123.017143 144.210954 l
123.144686 144.763869 l
123.399771 137.43315 l
123.527314 144.142474 l
123.654857 141.164834 l
123.7824 145.00344 l
123.909943 139.637399 l
124.037486 140.329916 l
124.165029 147.817239 l
124.292571 144.032717 l
124.420114 146.604719 l
124.547657 140.716293 l
124.6752 146.566416 l
124.802743 139.757118 l
125.057829 146.422613 l
125.185371 140.88404 l
125.312914 142.714072 l
125.440457 137.204012 l
125.695543 145.477395 l
125.823086 140.792121 l
125.950629 142.975251 l
126.078171 140.630806 l
126.333257 143.702227 l
126.4608 143.40691 l
126.588343 143.781232 l
126.715886 138.024415 l
126.843429 141.789986 l
126.970971 140.926269 l
127.098514 145.896525 l
127.226057 143.018565 l
127.3536 145.453843 l
127.481143 145.597865 l
127.608686 144.669372 l
127.736229 147.614697 l
127.863771 142.359158 l
127.991314 150.034334 l
128.2464 136.884028 l
128.373943 145.368236 l
128.501486 138.66719 l
128.629029 146.551971 l
128.756571 135.64038 l
128.884114 141.997866 l
129.1392 138.616758 l
129.266743 144.666078 l
129.394286 140.012905 l
129.521829 142.410872 l
129.649371 140.153644 l
129.776914 135.819966 l
129.904457 146.984266 l
130.032 136.143033 l
130.159543 144.234841 l
130.287086 137.822537 l
130.414629 139.956482 l
130.542171 138.504869 l
130.669714 144.89183 l
130.797257 143.781486 l
130.9248 139.554694 l
131.052343 144.465551 l
131.179886 142.721055 l
131.307429 146.303369 l
131.562514 141.896581 l
131.690057 143.625323 l
131.8176 143.10029 l
132.072686 138.710278 l
132.200229 139.505493 l
132.327771 136.702562 l
132.582857 143.942474 l
132.7104 131.96697 l
132.837943 142.00595 l
132.965486 140.956878 l
133.093029 141.855865 l
133.220571 138.729518 l
133.348114 142.672159 l
133.475657 142.260043 l
133.6032 137.24829 l
133.730743 144.655192 l
133.858286 140.46983 l
133.985829 141.95514 l
134.113371 138.507682 l
134.240914 141.161971 l
134.368457 140.384213 l
134.496 138.50461 l
134.623543 144.422459 l
134.751086 136.269249 l
134.878629 143.320279 l
135.006171 136.330433 l
135.261257 142.206793 l
135.3888 141.295596 l
135.516343 142.790959 l
135.771429 140.180707 l
135.898971 142.733987 l
136.026514 142.047596 l
136.154057 146.166021 l
136.409143 142.128496 l
136.536686 144.214179 l
136.791771 142.200286 l
136.919314 142.499894 l
137.046857 143.770882 l
137.1744 139.754526 l
137.301943 142.103523 l
137.429486 141.083328 l
137.557029 143.150292 l
137.684571 142.981411 l
137.812114 140.195884 l
137.939657 140.658751 l
138.0672 142.107386 l
138.194743 141.224128 l
138.577371 144.050982 l
138.704914 138.060388 l
138.96 144.447717 l
139.087543 139.066041 l
139.342629 143.347434 l
139.470171 140.261362 l
139.597714 148.278081 l
139.725257 142.237058 l
139.8528 141.613633 l
139.980343 144.561812 l
140.107886 143.586318 l
140.362971 139.938853 l
140.490514 142.810521 l
140.618057 139.447396 l
140.7456 143.89233 l
140.873143 141.672109 l
141.000686 144.934548 l
141.128229 142.955363 l
141.255771 147.104822 l
141.383314 140.977289 l
141.6384 146.434212 l
141.765943 142.895193 l
141.893486 146.041688 l
142.021029 143.035809 l
142.148571 143.552845 l
142.276114 140.509632 l
142.5312 141.674706 l
142.658743 140.042888 l
142.913829 145.631866 l
143.041371 143.279613 l
143.168914 146.317566 l
143.296457 139.383276 l
143.424 145.13815 l
143.551543 144.958277 l
143.679086 144.439275 l
143.806629 147.530759 l
144.061714 145.472628 l
144.189257 144.580026 l
144.3168 146.49176 l
144.444343 144.941275 l
144.571886 141.903356 l
144.699429 146.013552 l
144.826971 142.498668 l
145.082057 146.107558 l
145.2096 146.392492 l
145.337143 144.032604 l
145.464686 145.895919 l
145.592229 141.17497 l
145.719771 140.669898 l
145.847314 138.721522 l
145.974857 142.631597 l
146.1024 141.367326 l
146.229943 141.394426 l
146.485029 137.89374 l
146.612571 141.368479 l
146.867657 139.667165 l
146.9952 146.353159 l
147.122743 142.649345 l
147.250286 147.74948 l
147.505371 144.752218 l
147.632914 138.330169 l
147.760457 142.511546 l
147.888 139.308117 l
148.015543 141.217489 l
148.143086 138.317054 l
148.270629 141.204936 l
148.398171 138.418747 l
148.525714 143.349006 l
148.653257 139.402734 l
148.7808 140.935601 l
148.908343 138.696594 l
149.035886 143.571373 l
149.163429 140.76465 l
149.418514 142.293752 l
149.546057 141.105738 l
149.6736 144.116644 l
149.801143 136.368619 l
149.928686 140.413637 l
150.056229 139.628606 l
150.183771 137.375231 l
150.821486 143.761816 l
150.949029 147.133074 l
151.204114 144.517466 l
151.331657 143.501764 l
151.4592 145.424959 l
151.841829 133.458507 l
152.096914 139.585765 l
152.224457 137.248208 l
152.352 144.142437 l
152.479543 137.567084 l
152.607086 144.726247 l
152.862171 138.550735 l
152.989714 142.747865 l
153.117257 139.969086 l
153.2448 143.205471 l
153.372343 140.683099 l
153.499886 140.781206 l
153.627429 138.578115 l
153.754971 145.287902 l
154.010057 140.058154 l
154.1376 141.566331 l
154.265143 141.752323 l
154.392686 144.948474 l
154.520229 138.842439 l
154.647771 143.240672 l
154.775314 141.113664 l
154.902857 136.625342 l
155.0304 141.955287 l
155.157943 138.696213 l
155.413029 143.222501 l
155.540571 143.02533 l
155.668114 140.051111 l
155.795657 143.732631 l
156.050743 143.576712 l
156.178286 145.323876 l
156.305829 140.430767 l
156.433371 141.71037 l
156.560914 144.248013 l
156.688457 140.384936 l
156.816 142.85246 l
156.943543 138.82848 l
157.071086 140.889602 l
157.198629 138.495917 l
157.453714 140.409631 l
157.581257 145.112049 l
157.7088 145.187839 l
157.836343 143.544371 l
157.963886 136.344568 l
158.091429 141.569368 l
158.218971 141.58734 l
158.346514 142.60389 l
158.474057 145.726461 l
158.6016 135.76587 l
158.729143 144.15455 l
158.856686 142.978057 l
158.984229 135.275963 l
159.111771 144.256511 l
159.239314 137.800435 l
159.366857 142.330708 l
159.4944 142.126948 l
159.621943 144.127257 l
159.749486 142.483284 l
159.877029 142.839175 l
160.132114 147.08752 l
160.3872 135.09417 l
160.514743 143.501716 l
160.642286 137.978294 l
160.769829 138.908432 l
160.897371 144.163959 l
161.28 138.239494 l
161.407543 145.911742 l
161.662629 143.074732 l
161.790171 142.166503 l
161.917714 146.350166 l
162.045257 141.970228 l
162.300343 146.420966 l
162.427886 147.153759 l
162.682971 142.39681 l
162.810514 143.669655 l
162.938057 142.80389 l
163.0656 141.118846 l
163.193143 145.80814 l
163.320686 146.285007 l
163.448229 145.311977 l
163.575771 149.149354 l
163.830857 147.819711 l
163.9584 142.523869 l
164.085943 148.283211 l
164.213486 146.506419 l
164.341029 137.95359 l
164.468571 143.740544 l
164.596114 141.252837 l
164.723657 142.546361 l
164.8512 142.577704 l
164.978743 139.2088 l
165.106286 140.04683 l
165.233829 138.100916 l
165.361371 139.680116 l
165.488914 143.253924 l
165.616457 141.582668 l
165.744 144.22945 l
165.999086 141.121922 l
166.126629 139.784098 l
166.381714 143.41767 l
166.509257 143.11123 l
166.6368 145.169553 l
166.764343 142.036651 l
166.891886 143.160868 l
167.019429 142.078962 l
167.274514 145.03266 l
167.5296 141.771262 l
167.657143 141.871919 l
167.784686 138.915979 l
167.912229 142.235614 l
168.039771 138.809998 l
168.167314 141.130625 l
168.294857 141.248304 l
168.4224 144.429864 l
168.677486 142.255898 l
168.805029 143.632064 l
168.932571 143.736423 l
169.060114 142.647077 l
169.187657 145.499256 l
169.3152 145.579149 l
169.442743 144.257741 l
169.570286 145.945642 l
169.697829 144.74373 l
169.825371 144.641101 l
169.952914 141.604753 l
170.080457 143.514784 l
170.208 140.715793 l
170.335543 145.547311 l
170.463086 145.552144 l
170.590629 148.534374 l
171.1008 143.199484 l
171.228343 143.340469 l
171.355886 143.153519 l
171.610971 144.495331 l
171.738514 146.103531 l
171.866057 145.641534 l
171.9936 142.470634 l
172.121143 145.390054 l
172.248686 144.59766 l
172.376229 144.902029 l
172.503771 145.559171 l
172.631314 142.175082 l
172.758857 145.270823 l
172.8864 140.514185 l
173.013943 143.630681 l
173.269029 144.10192 l
173.396571 146.215777 l
173.524114 146.144827 l
173.651657 145.62925 l
173.7792 144.125361 l
173.906743 146.099162 l
174.034286 145.450923 l
174.161829 145.621627 l
174.289371 144.947866 l
174.416914 141.040739 l
174.544457 145.941142 l
174.799543 143.756445 l
174.927086 144.645041 l
175.054629 147.289531 l
175.182171 145.586502 l
175.309714 147.448539 l
175.437257 144.966191 l
175.692343 145.886263 l
175.819886 143.572141 l
175.947429 145.128332 l
176.074971 144.104058 l
176.202514 147.398247 l
176.330057 145.420637 l
176.4576 147.987454 l
176.585143 145.56988 l
176.712686 145.904465 l
176.840229 145.562538 l
176.967771 144.353165 l
177.095314 145.393728 l
177.222857 148.328581 l
177.477943 144.88046 l
177.605486 146.333406 l
177.988114 140.31037 l
178.115657 143.383405 l
178.2432 139.635446 l
178.625829 145.699082 l
178.880914 142.742096 l
179.008457 147.965777 l
179.136 147.025464 l
179.263543 144.131344 l
179.391086 148.361301 l
179.518629 145.692845 l
179.646171 146.971882 l
179.773714 146.799019 l
179.901257 143.309866 l
180.0288 144.401978 l
180.156343 144.18564 l
180.283886 145.203888 l
180.538971 141.616692 l
180.666514 147.165394 l
180.794057 143.976433 l
180.9216 144.997276 l
181.049143 145.059103 l
181.176686 140.735053 l
181.304229 144.425343 l
181.559314 143.699518 l
181.8144 147.350549 l
181.941943 142.603801 l
182.069486 147.076898 l
182.197029 146.449751 l
182.324571 145.257572 l
182.452114 145.930475 l
182.579657 144.087756 l
182.7072 146.075007 l
182.834743 142.45646 l
182.962286 146.028167 l
183.089829 144.433658 l
183.217371 147.583348 l
183.472457 144.118364 l
183.6 146.214211 l
183.855086 143.682341 l
183.982629 143.487203 l
184.110171 144.042925 l
184.237714 144.010707 l
184.365257 141.33111 l
184.4928 144.460733 l
184.620343 144.487823 l
184.747886 142.901268 l
184.875429 142.731081 l
185.130514 145.29525 l
185.3856 145.15889 l
185.513143 144.037577 l
185.640686 146.082203 l
185.768229 144.144651 l
185.895771 144.202319 l
186.2784 141.665726 l
186.405943 144.059047 l
186.533486 142.610078 l
186.661029 139.865843 l
186.916114 144.45412 l
187.043657 141.224611 l
187.426286 144.760074 l
187.808914 142.940419 l
188.064 145.954825 l
188.191543 145.607658 l
188.446629 143.202765 l
188.701714 143.343108 l
188.829257 143.983318 l
188.9568 143.282935 l
189.084343 141.174906 l
189.211886 145.636072 l
189.339429 144.894685 l
189.466971 143.158557 l
189.722057 145.407744 l
189.8496 145.792929 l
189.977143 145.627108 l
190.104686 143.105444 l
190.232229 144.151956 l
190.359771 143.754919 l
190.487314 144.189252 l
190.614857 141.956287 l
190.7424 142.975009 l
190.869943 142.809126 l
190.997486 142.058748 l
191.125029 142.873421 l
191.380114 141.390824 l
191.6352 144.691546 l
191.890286 141.334761 l
192.017829 143.737231 l
192.272914 144.15219 l
192.400457 143.961925 l
192.528 142.309333 l
192.655543 143.321243 l
192.783086 143.274417 l
192.910629 142.797252 l
193.038171 143.584599 l
193.165714 145.34868 l
193.293257 142.796964 l
193.4208 142.726028 l
193.548343 144.783204 l
193.675886 142.717451 l
193.930971 143.434945 l
194.058514 142.34859 l
194.3136 144.254803 l
194.441143 141.428336 l
194.568686 141.936781 l
194.696229 144.827944 l
194.823771 143.976799 l
194.951314 143.903606 l
195.078857 142.167859 l
195.2064 142.697731 l
195.461486 146.723404 l
195.589029 144.799004 l
195.716571 146.854892 l
195.844114 146.492662 l
195.971657 143.588813 l
196.0992 146.250634 l
196.226743 142.746041 l
196.354286 147.446171 l
196.481829 143.669677 l
196.736914 145.394971 l
196.992 145.028789 l
197.119543 141.452838 l
197.247086 145.105961 l
197.502171 142.551112 l
197.629714 143.132268 l
197.757257 141.843393 l
197.8848 142.647023 l
198.012343 142.025919 l
198.267429 143.828228 l
198.522514 143.850129 l
198.650057 142.192415 l
198.7776 142.626077 l
198.905143 144.246108 l
199.032686 141.90185 l
199.160229 144.959107 l
199.287771 141.142223 l
199.415314 142.926569 l
199.542857 140.883229 l
199.797943 147.847188 l
199.925486 144.752378 l
200.053029 144.976109 l
200.180571 145.614764 l
200.308114 142.297358 l
200.5632 148.537256 l
200.690743 145.15106 l
200.818286 146.289298 l
201.073371 142.681195 l
201.200914 145.67467 l
201.456 144.490203 l
201.583543 145.737493 l
201.711086 143.053065 l
201.838629 143.331699 l
202.093714 145.370782 l
202.221257 145.540407 l
202.3488 143.622719 l
202.476343 146.279517 l
202.603886 143.179787 l
202.731429 144.454119 l
202.986514 142.260043 l
203.2416 144.588391 l
203.496686 141.732319 l
203.624229 143.228476 l
203.751771 142.847158 l
203.879314 141.051643 l
204.006857 143.250104 l
204.1344 141.692794 l
204.261943 143.762259 l
204.389486 140.776743 l
204.517029 143.89462 l
204.644571 143.235095 l
204.772114 141.259985 l
204.899657 143.051476 l
205.0272 142.08358 l
205.154743 143.937797 l
205.409829 138.109442 l
205.537371 140.758809 l
205.792457 138.946652 l
205.92 140.665857 l
206.047543 144.354899 l
206.175086 141.408981 l
206.430171 142.427537 l
206.557714 142.790187 l
206.685257 142.101269 l
206.8128 143.29898 l
206.940343 143.023309 l
207.195429 141.560169 l
207.322971 141.74207 l
207.578057 140.860864 l
207.833143 139.809655 l
207.960686 138.500869 l
208.088229 140.236047 l
208.215771 140.299886 l
208.470857 141.970162 l
208.5984 140.754633 l
208.725943 142.028267 l
208.853486 138.898092 l
208.981029 138.755153 l
209.236114 142.004526 l
209.363657 142.131334 l
209.4912 143.197709 l
209.618743 143.231965 l
209.746286 141.303877 l
209.873829 142.860984 l
210.001371 141.896183 l
210.128914 143.036505 l
210.256457 141.510411 l
210.384 142.782901 l
210.639086 142.018793 l
210.894171 141.169367 l
211.021714 141.309607 l
211.149257 142.248283 l
211.2768 141.986845 l
211.404343 142.603846 l
211.659429 139.616376 l
211.914514 142.049877 l
212.042057 141.285345 l
212.297143 143.407274 l
212.424686 139.667444 l
212.552229 142.99782 l
212.807314 139.229265 l
213.0624 142.964466 l
213.189943 138.57759 l
213.317486 140.832157 l
213.445029 141.00754 l
213.572571 141.723048 l
213.700114 140.463712 l
213.827657 141.66533 l
213.9552 140.333244 l
214.210286 141.989601 l
214.337829 142.066135 l
214.465371 142.898975 l
214.592914 140.862221 l
214.720457 142.449304 l
214.848 141.98788 l
214.975543 142.265505 l
215.103086 144.493491 l
215.230629 139.793693 l
215.485714 143.182212 l
215.613257 140.039649 l
215.7408 142.530827 l
215.868343 142.477164 l
215.995886 140.178647 l
216.123429 142.233089 l
216.250971 142.435568 l
216.378514 140.740019 l
216.506057 141.746135 l
216.6336 140.478963 l
216.761143 141.216057 l
216.888686 140.667961 l
217.016229 142.225041 l
217.143771 138.437585 l
217.271314 142.261135 l
217.5264 139.766721 l
217.653943 141.18401 l
217.781486 140.314272 l
217.909029 142.508197 l
218.164114 138.333334 l
218.291657 139.829491 l
218.4192 143.145687 l
218.674286 138.761176 l
218.801829 144.096171 l
219.056914 137.730612 l
219.184457 142.200403 l
219.312 136.801435 l
219.439543 142.133069 l
219.567086 136.687087 l
219.694629 142.142018 l
219.822171 139.487353 l
219.949714 143.986675 l
220.077257 141.235668 l
220.2048 141.894578 l
220.332343 143.783083 l
220.587429 140.293479 l
220.714971 139.74156 l
220.842514 141.208388 l
220.970057 140.415107 l
221.0976 140.804362 l
221.225143 136.494086 l
221.352686 143.728009 l
221.607771 140.495978 l
221.735314 139.361945 l
221.862857 141.17329 l
221.9904 140.609852 l
222.117943 135.187453 l
222.245486 137.864582 l
222.373029 134.828311 l
222.628114 140.916217 l
222.755657 137.240641 l
222.8832 141.263138 l
223.010743 138.865922 l
223.138286 143.719418 l
223.265829 141.670539 l
223.393371 137.714317 l
223.520914 141.619864 l
223.648457 139.688692 l
223.776 141.556716 l
223.903543 140.254828 l
224.031086 140.657694 l
224.158629 142.161584 l
224.286171 139.10419 l
224.413714 141.765068 l
224.6688 139.217165 l
224.923886 140.673395 l
225.051429 138.742088 l
225.178971 142.505136 l
225.306514 138.883671 l
225.434057 141.69155 l
225.5616 141.932308 l
225.816686 136.491927 l
225.944229 136.990381 l
226.071771 143.243098 l
226.199314 139.673679 l
226.326857 141.362289 l
226.4544 140.085175 l
226.581943 139.963012 l
226.709486 141.633213 l
226.837029 139.354795 l
226.964571 141.967631 l
227.092114 138.552444 l
227.219657 141.512965 l
227.474743 136.739267 l
227.602286 143.632212 l
227.857371 137.096863 l
227.984914 143.540818 l
228.112457 141.313636 l
228.24 136.770485 l
228.367543 139.333255 l
228.622629 136.997073 l
228.750171 137.913116 l
228.877714 136.546824 l
229.005257 139.137362 l
229.260343 136.999202 l
229.642971 140.356613 l
229.770514 138.761132 l
229.898057 139.928442 l
230.0256 139.318957 l
230.153143 139.319536 l
230.280686 138.023054 l
230.408229 140.520011 l
230.535771 136.335068 l
230.663314 139.986782 l
230.790857 137.988124 l
230.9184 140.770125 l
231.045943 137.298797 l
231.173486 136.912104 l
231.428571 138.823676 l
231.556114 135.479047 l
231.683657 139.386365 l
231.8112 135.881598 l
232.066286 137.893856 l
232.193829 138.101576 l
232.321371 138.597751 l
232.576457 139.803085 l
232.704 140.459324 l
232.959086 136.246954 l
233.086629 142.359998 l
233.214171 136.686068 l
233.341714 136.823138 l
233.469257 139.776407 l
233.5968 139.521919 l
233.724343 140.698297 l
233.979429 136.517874 l
234.234514 141.500355 l
234.362057 140.283413 l
234.4896 137.981524 l
234.617143 139.311731 l
234.744686 137.753886 l
234.872229 138.016888 l
234.999771 138.980979 l
235.127314 137.738223 l
235.254857 141.93537 l
235.3824 136.173515 l
235.637486 140.855754 l
235.765029 139.282391 l
235.892571 143.894603 l
236.020114 138.859263 l
236.147657 140.239292 l
236.402743 137.773178 l
236.657829 140.007023 l
236.785371 139.978881 l
236.912914 136.156438 l
237.040457 141.7047 l
237.168 141.988733 l
237.295543 139.815279 l
237.423086 141.927677 l
237.550629 136.589106 l
237.678171 142.345511 l
237.805714 137.829093 l
237.933257 137.421242 l
238.0608 134.677865 l
238.188343 138.204147 l
238.315886 134.611469 l
238.443429 134.864022 l
238.570971 131.369444 l
238.698514 136.275664 l
238.826057 136.733615 l
238.9536 136.387012 l
239.081143 136.571798 l
239.208686 132.878933 l
239.336229 139.220276 l
239.463771 136.00375 l
239.591314 136.129238 l
239.718857 138.151657 l
239.8464 135.748819 l
239.973943 137.664005 l
240.229029 136.718119 l
240.356571 132.545516 l
240.611657 137.915034 l
240.7392 134.205254 l
240.994286 140.170406 l
241.121829 137.553401 l
241.249371 141.694104 l
241.504457 140.09315 l
241.632 135.983013 l
241.759543 140.924271 l
241.887086 139.651229 l
242.014629 140.314604 l
242.269714 137.114434 l
242.397257 138.029065 l
242.5248 136.257821 l
242.779886 137.617108 l
242.907429 136.411323 l
243.034971 139.72993 l
243.162514 136.459541 l
243.4176 138.746077 l
243.545143 138.560288 l
243.672686 139.032868 l
243.800229 133.810751 l
244.055314 136.18629 l
244.182857 136.419343 l
244.3104 135.161699 l
244.437943 132.121285 l
244.693029 140.2014 l
244.948114 138.12444 l
245.075657 141.820767 l
245.330743 138.020142 l
245.458286 138.918476 l
245.585829 136.747136 l
245.713371 138.405089 l
245.840914 135.143954 l
245.968457 135.726948 l
246.096 133.926464 l
246.351086 136.002023 l
246.478629 135.883746 l
246.606171 139.006092 l
246.733714 135.367986 l
246.861257 140.584203 l
246.9888 141.219307 l
247.116343 138.424972 l
247.371429 140.515759 l
247.498971 136.206835 l
247.626514 138.197412 l
247.754057 135.076072 l
247.8816 135.019765 l
248.009143 137.621868 l
248.136686 132.965218 l
248.264229 139.479245 l
248.391771 135.527472 l
248.646857 138.025751 l
248.7744 135.63877 l
248.901943 138.990232 l
249.029486 138.779402 l
249.157029 137.50902 l
249.284571 138.369446 l
249.412114 133.866371 l
249.6672 137.408937 l
249.922286 132.054029 l
250.049829 135.575408 l
250.177371 130.683272 l
250.304914 135.726712 l
250.432457 135.850891 l
250.687543 134.877043 l
250.815086 138.437775 l
250.942629 138.503974 l
251.070171 133.820226 l
251.197714 133.561708 l
251.325257 137.707581 l
251.4528 134.201455 l
251.707886 137.029324 l
251.962971 134.104522 l
252.090514 132.65711 l
252.218057 129.725736 l
252.3456 136.588163 l
252.473143 133.878062 l
252.600686 136.661051 l
252.728229 132.091398 l
252.983314 138.009233 l
253.110857 136.341492 l
253.2384 138.229026 l
253.365943 136.674782 l
253.621029 138.803935 l
253.748571 138.425841 l
253.876114 134.512621 l
254.003657 139.974888 l
254.1312 135.323039 l
254.258743 135.535852 l
254.386286 138.828041 l
254.513829 136.569795 l
254.641371 138.014709 l
254.768914 134.662561 l
254.896457 137.949352 l
255.024 136.563824 l
255.279086 137.907195 l
255.406629 136.359975 l
255.534171 140.897932 l
255.661714 137.060653 l
255.789257 139.224987 l
255.9168 138.433517 l
256.044343 138.469481 l
256.171886 134.062479 l
256.299429 141.465281 l
256.426971 134.065612 l
256.554514 140.884763 l
256.682057 139.037564 l
256.8096 139.323085 l
256.937143 135.019021 l
257.064686 139.834701 l
257.192229 134.733878 l
257.319771 138.719025 l
257.447314 132.349264 l
257.574857 136.150925 l
257.7024 136.466926 l
257.829943 136.443832 l
257.957486 131.555506 l
258.085029 135.23632 l
258.212571 134.359149 l
258.340114 134.715584 l
258.467657 137.36074 l
258.5952 132.893572 l
258.722743 136.614918 l
258.850286 134.743935 l
258.977829 137.185718 l
259.105371 130.182554 l
259.232914 134.604333 l
259.360457 133.597536 l
259.488 134.539823 l
259.615543 133.601943 l
259.870629 137.277391 l
260.125714 132.563715 l
260.253257 136.34391 l
260.3808 132.666492 l
260.508343 135.2176 l
260.635886 132.323537 l
260.763429 134.528701 l
260.890971 133.140673 l
261.018514 135.964995 l
261.146057 135.615962 l
261.2736 134.288517 l
261.401143 130.438368 l
261.528686 134.952442 l
261.656229 130.490235 l
261.783771 133.315256 l
261.911314 132.072075 l
262.038857 136.290366 l
262.1664 131.029394 l
262.549029 135.825436 l
262.676571 133.13781 l
262.931657 135.461485 l
263.0592 136.247743 l
263.186743 129.862388 l
263.314286 139.891099 l
263.441829 131.058192 l
263.696914 137.18696 l
263.952 132.732817 l
264.207086 134.378945 l
264.462171 129.490596 l
264.589714 133.292568 l
264.717257 133.146925 l
264.8448 131.741231 l
264.972343 133.232056 l
265.099886 133.138566 l
265.354971 132.100459 l
265.482514 129.980283 l
265.610057 132.553608 l
265.7376 131.873065 l
265.865143 129.711193 l
265.992686 134.476068 l
266.120229 129.709336 l
266.247771 136.122847 l
266.375314 132.276783 l
266.502857 135.031095 l
266.6304 134.198838 l
266.757943 129.581184 l
266.885486 130.422191 l
267.013029 133.201305 l
267.140571 129.399635 l
267.268114 132.836595 l
267.395657 127.351438 l
267.5232 132.720561 l
267.650743 132.696802 l
267.778286 125.245275 l
267.905829 133.420984 l
268.033371 133.197306 l
268.160914 130.069379 l
268.288457 137.165617 l
268.416 127.629944 l
268.543543 136.035974 l
268.671086 130.686072 l
268.798629 131.741973 l
268.926171 135.893263 l
269.053714 129.771574 l
269.181257 131.730018 l
269.3088 131.194757 l
269.436343 134.21784 l
269.563886 133.575838 l
269.691429 134.922628 l
269.818971 129.238096 l
269.946514 134.558636 l
270.074057 133.581708 l
270.2016 128.210934 l
270.329143 135.58033 l
270.584229 131.228159 l
270.711771 133.919254 l
270.839314 132.029921 l
271.0944 134.780686 l
271.221943 133.966451 l
271.349486 135.65581 l
271.477029 132.6431 l
271.9872 136.834363 l
272.114743 133.180965 l
272.242286 134.207698 l
272.369829 138.67361 l
272.624914 131.819572 l
272.752457 134.560509 l
272.88 134.234298 l
273.007543 131.296084 l
273.135086 133.404262 l
273.262629 132.562377 l
273.390171 135.752297 l
273.517714 131.503938 l
273.645257 137.848132 l
273.7728 130.7254 l
273.900343 136.041547 l
274.027886 132.820815 l
274.155429 132.557488 l
274.282971 130.651557 l
274.410514 138.918476 l
274.6656 134.311143 l
274.793143 135.979085 l
274.920686 131.021134 l
275.048229 136.050532 l
275.175771 136.61347 l
275.303314 135.971683 l
275.430857 139.198882 l
275.5584 133.79801 l
275.813486 138.989266 l
275.941029 136.801723 l
276.068571 137.933763 l
276.4512 132.671013 l
276.578743 137.073678 l
276.706286 129.717464 l
276.833829 134.804287 l
277.088914 131.70654 l
277.216457 130.612966 l
277.471543 137.093781 l
277.599086 134.454164 l
277.726629 137.859481 l
277.854171 134.216506 l
277.981714 138.092377 l
278.109257 137.74249 l
278.2368 135.522347 l
278.364343 138.235465 l
278.491886 137.390904 l
278.619429 137.508165 l
278.746971 135.67526 l
278.874514 135.520205 l
279.002057 136.992348 l
279.1296 132.119354 l
279.257143 136.069296 l
279.512229 132.444037 l
279.639771 138.234637 l
279.767314 129.28512 l
279.894857 134.344988 l
280.149943 130.812728 l
280.405029 134.399183 l
280.532571 135.386772 l
280.660114 131.629245 l
280.787657 135.922261 l
281.042743 133.363393 l
281.297829 137.73667 l
281.425371 130.712963 l
281.680457 137.891302 l
281.808 132.735147 l
281.935543 136.45767 l
282.318171 132.836323 l
282.445714 138.537624 l
282.7008 131.479449 l
282.955886 136.289615 l
283.083429 129.654745 l
283.210971 135.623068 l
283.338514 135.140613 l
283.466057 130.876701 l
283.721143 136.516426 l
283.848686 131.845501 l
283.976229 133.809334 l
284.103771 140.734192 l
284.231314 131.985777 l
284.358857 136.523034 l
284.4864 137.052847 l
284.613943 134.560519 l
284.741486 134.977003 l
284.869029 138.072542 l
285.124114 135.360995 l
285.634286 139.400594 l
285.889371 132.682334 l
286.144457 136.327925 l
286.272 133.320883 l
286.399543 135.716116 l
286.527086 135.257701 l
286.654629 130.253243 l
286.782171 138.028281 l
286.909714 130.177991 l
287.037257 134.914375 l
287.1648 134.716652 l
287.292343 133.091534 l
287.547429 139.505136 l
287.802514 136.976161 l
287.930057 135.278449 l
288.0576 138.6645 l
288.312686 132.998422 l
288.440229 138.88635 l
288.567771 132.577637 l
288.822857 138.059552 l
288.9504 132.535252 l
289.077943 133.737897 l
289.205486 137.848738 l
289.460571 128.826155 l
289.588114 136.710379 l
289.715657 137.081596 l
289.8432 130.356405 l
289.970743 134.02555 l
290.098286 131.927829 l
290.225829 132.251089 l
290.353371 131.035683 l
290.480914 137.184958 l
290.608457 130.888774 l
290.863543 138.968753 l
291.118629 134.147074 l
291.246171 134.385461 l
291.501257 130.259022 l
291.6288 133.802102 l
291.756343 133.563459 l
291.883886 134.456184 l
292.011429 131.372437 l
292.138971 132.54802 l
292.266514 134.955765 l
292.394057 133.802201 l
292.5216 128.535922 l
292.649143 139.104932 l
292.904229 129.858318 l
293.031771 136.748964 l
293.159314 136.948831 l
293.286857 129.378941 l
293.4144 136.061441 l
293.541943 133.651976 l
293.669486 128.355443 l
293.797029 129.105387 l
293.924571 137.290478 l
294.052114 133.333189 l
294.179657 133.602716 l
294.3072 131.158403 l
294.434743 135.240559 l
294.562286 129.860864 l
294.689829 131.048575 l
294.817371 135.732937 l
294.944914 132.907985 l
295.072457 135.467609 l
295.2 131.770903 l
295.327543 135.458963 l
295.455086 132.524085 l
295.582629 133.643168 l
295.710171 139.118936 l
295.965257 128.970018 l
296.0928 139.75911 l
296.220343 133.325337 l
296.347886 134.589533 l
296.475429 139.674755 l
296.602971 132.141356 l
296.730514 135.775008 l
296.858057 129.049779 l
296.9856 130.408915 l
297.113143 134.71542 l
297.240686 131.876715 l
297.495771 135.712896 l
297.623314 130.164375 l
297.8784 136.97786 l
298.005943 128.356684 l
298.133486 138.004691 l
298.388571 131.054401 l
298.643657 136.095034 l
298.7712 132.293413 l
299.153829 134.463636 l
299.281371 131.670587 l
299.408914 136.897387 l
299.664 130.586568 l
299.919086 134.928472 l
300.046629 131.152591 l
300.174171 135.733902 l
300.301714 130.294414 l
300.684343 133.586715 l
300.811886 129.356965 l
300.939429 134.336647 l
301.066971 128.88289 l
301.194514 131.029687 l
301.322057 136.841361 l
301.4496 128.346122 l
301.704686 136.835519 l
301.832229 131.772659 l
301.959771 131.760707 l
302.087314 135.26653 l
302.3424 132.410059 l
302.469943 134.545633 l
302.597486 133.378355 l
302.725029 130.862611 l
302.852571 130.889823 l
302.980114 128.847653 l
303.107657 132.098082 l
303.2352 130.792655 l
303.362743 131.265835 l
303.617829 129.060475 l
303.745371 132.177127 l
303.872914 125.895718 l
304.128 135.824561 l
304.255543 127.135941 l
304.510629 131.639574 l
304.638171 129.052121 l
304.765714 129.707826 l
304.893257 131.631476 l
305.0208 127.479446 l
305.148343 130.113384 l
305.275886 128.056112 l
305.403429 132.03227 l
305.530971 127.686288 l
305.658514 127.420716 l
305.786057 132.504012 l
305.9136 131.640133 l
306.041143 128.149609 l
306.423771 131.432911 l
306.551314 132.171373 l
306.678857 131.785903 l
306.8064 129.665256 l
306.933943 137.922056 l
307.061486 131.555926 l
307.189029 136.38677 l
307.316571 130.692766 l
307.444114 136.060824 l
307.571657 132.960978 l
307.6992 133.276492 l
307.826743 130.642074 l
307.954286 130.600787 l
308.081829 127.889997 l
308.336914 129.377186 l
308.464457 127.090447 l
308.592 133.300737 l
308.719543 128.665072 l
308.847086 130.99646 l
308.974629 125.517495 l
309.102171 132.13949 l
309.357257 128.665305 l
309.4848 132.770002 l
309.612343 130.753191 l
309.739886 132.095676 l
309.867429 134.907821 l
309.994971 129.313719 l
310.250057 134.709141 l
310.3776 129.225363 l
310.632686 133.692359 l
310.760229 130.224421 l
310.887771 133.48037 l
311.015314 133.549162 l
311.142857 131.963281 l
311.2704 134.618078 l
311.397943 128.637304 l
311.525486 128.449586 l
311.653029 135.93671 l
311.780571 128.033469 l
311.908114 134.028323 l
312.035657 133.84897 l
312.1632 127.245048 l
312.418286 135.55592 l
312.545829 133.459641 l
312.673371 133.441295 l
312.800914 135.413336 l
312.928457 132.139657 l
313.056 135.786542 l
313.183543 134.826374 l
313.311086 132.258254 l
313.438629 133.221675 l
313.566171 132.018941 l
313.693714 134.431588 l
313.821257 133.24775 l
313.9488 130.207791 l
314.076343 131.531054 l
314.203886 134.032783 l
314.331429 131.049884 l
314.458971 135.018579 l
314.586514 129.533306 l
314.714057 132.671981 l
314.969143 130.376855 l
315.096686 133.565417 l
315.224229 133.468529 l
315.351771 132.51495 l
315.479314 134.6576 l
315.606857 132.319301 l
315.7344 133.185531 l
315.861943 134.871252 l
315.989486 134.078417 l
316.117029 136.384383 l
316.244571 134.425668 l
316.372114 135.613667 l
316.499657 131.69963 l
316.6272 136.138183 l
316.754743 135.366056 l
316.882286 136.833006 l
317.009829 128.779032 l
317.137371 136.018141 l
317.264914 129.750381 l
317.392457 134.102924 l
317.52 132.344748 l
317.647543 133.628808 l
317.775086 133.75191 l
317.902629 132.236943 l
318.030171 137.730723 l
318.157714 133.07673 l
318.285257 136.675677 l
318.4128 136.177743 l
318.540343 129.944863 l
318.667886 138.909139 l
318.795429 131.562421 l
319.3056 136.441799 l
319.433143 135.354668 l
319.560686 136.092714 l
319.688229 132.362898 l
319.815771 139.141667 l
319.943314 129.279052 l
320.1984 137.304221 l
320.325943 131.011278 l
320.453486 136.469361 l
320.581029 136.631922 l
320.708571 136.152251 l
320.836114 133.133381 l
320.963657 135.330205 l
321.0912 134.286598 l
321.218743 134.745733 l
321.346286 129.118199 l
321.473829 139.940235 l
321.601371 128.409867 l
321.856457 136.347343 l
321.984 136.261315 l
322.366629 130.837904 l
322.494171 134.727161 l
322.621714 135.006644 l
322.749257 129.763757 l
323.004343 135.378198 l
323.131886 137.279855 l
323.259429 133.863723 l
323.386971 138.052289 l
323.7696 134.313333 l
323.897143 130.238712 l
324.024686 136.786453 l
324.152229 135.718266 l
324.407314 132.175361 l
324.6624 138.844949 l
324.789943 134.395936 l
324.917486 134.479612 l
325.045029 134.927311 l
325.427657 129.270761 l
325.5552 136.771881 l
325.810286 131.429291 l
325.937829 135.538861 l
326.065371 131.594355 l
326.192914 134.826049 l
326.320457 134.559255 l
326.448 132.512051 l
326.575543 132.989135 l
326.703086 129.209497 l
326.830629 132.993589 l
326.958171 128.781247 l
327.085714 134.822394 l
327.213257 135.323309 l
327.3408 140.195222 l
327.468343 132.491069 l
327.595886 133.029984 l
327.850971 132.553824 l
327.978514 132.969965 l
328.106057 138.8743 l
328.2336 133.308221 l
328.361143 135.222432 l
328.488686 133.235327 l
328.616229 136.85531 l
328.743771 135.302602 l
328.871314 137.665506 l
328.998857 132.223667 l
329.1264 137.045299 l
329.381486 128.429855 l
329.509029 132.175418 l
329.636571 131.623768 l
329.764114 129.524271 l
329.891657 134.306469 l
330.0192 134.435274 l
330.146743 134.867758 l
330.401829 131.567649 l
330.529371 132.887238 l
330.656914 128.100535 l
330.912 131.878924 l
331.039543 134.128552 l
331.167086 126.91401 l
331.422171 131.911493 l
331.549714 125.106215 l
331.8048 131.086883 l
331.932343 128.468673 l
332.059886 134.135877 l
332.187429 128.182247 l
332.314971 129.195644 l
332.442514 132.343948 l
332.570057 126.588167 l
332.6976 133.824117 l
332.825143 131.570061 l
332.952686 136.8554 l
333.080229 134.131 l
333.335314 127.177354 l
333.462857 136.928766 l
333.717943 131.816992 l
333.973029 133.784343 l
334.100571 133.484596 l
334.228114 135.960523 l
334.355657 129.602094 l
334.610743 136.297574 l
334.865829 129.284853 l
334.993371 133.16037 l
335.120914 130.03801 l
335.248457 135.87908 l
335.503543 127.055163 l
335.631086 134.87456 l
335.886171 130.30206 l
336.013714 133.83199 l
336.141257 129.337575 l
336.396343 136.829776 l
336.523886 130.161385 l
336.651429 133.780295 l
336.778971 133.782147 l
336.906514 134.369216 l
337.034057 133.751097 l
337.1616 128.977509 l
337.416686 135.485494 l
337.671771 128.322589 l
337.799314 133.359297 l
337.926857 129.778594 l
338.0544 135.993294 l
338.181943 131.957638 l
338.309486 133.604261 l
338.437029 131.414187 l
338.692114 134.61174 l
338.819657 132.09116 l
338.9472 134.489953 l
339.074743 132.625483 l
339.202286 133.688277 l
339.329829 135.718601 l
339.457371 129.903398 l
339.584914 140.001631 l
339.712457 134.92048 l
339.84 135.134711 l
339.967543 133.906217 l
340.095086 133.945565 l
340.222629 134.641952 l
340.350171 131.025012 l
340.477714 135.948214 l
340.605257 136.356567 l
340.860343 133.082619 l
340.987886 133.05272 l
341.115429 133.181764 l
341.370514 136.384202 l
341.498057 133.98806 l
341.6256 134.504264 l
341.753143 129.789436 l
341.880686 132.494067 l
342.008229 131.997572 l
342.135771 133.813276 l
342.263314 133.291541 l
342.390857 136.456957 l
342.5184 135.713804 l
342.645943 132.80257 l
342.773486 127.238727 l
343.028571 136.583714 l
343.156114 131.004374 l
343.4112 135.183354 l
343.538743 134.758312 l
343.666286 131.659726 l
343.793829 131.536325 l
343.921371 130.756717 l
344.048914 134.488745 l
344.431543 130.789217 l
344.559086 133.637277 l
344.686629 126.553398 l
344.941714 131.638838 l
345.069257 134.682945 l
345.1968 133.459682 l
345.324343 134.712774 l
345.579429 128.823983 l
345.706971 135.148556 l
345.834514 135.201568 l
345.962057 129.595587 l
346.0896 134.042079 l
346.217143 131.097116 l
346.344686 134.910924 l
346.599771 130.967248 l
346.854857 135.976744 l
347.109943 129.651153 l
347.237486 133.187009 l
347.365029 133.492443 l
347.492571 127.142359 l
347.620114 134.211547 l
347.747657 133.748594 l
347.8752 134.243443 l
348.257829 130.734624 l
348.385371 134.258683 l
348.512914 125.033358 l
348.640457 134.143887 l
349.023086 129.383103 l
349.150629 132.637355 l
349.278171 129.472669 l
349.405714 131.410543 l
349.533257 130.589137 l
349.6608 138.35814 l
349.915886 127.081667 l
350.170971 137.561314 l
350.426057 127.591333 l
350.5536 134.770325 l
350.681143 133.301696 l
350.808686 133.990091 l
350.936229 130.31441 l
351.191314 137.210289 l
351.318857 136.001749 l
351.4464 132.541159 l
351.573943 133.761659 l
351.701486 136.866995 l
351.829029 132.10394 l
351.956571 138.827782 l
352.084114 136.028053 l
352.211657 137.628181 l
352.3392 136.852251 l
352.466743 132.926247 l
352.594286 140.013276 l
352.849371 130.922393 l
352.976914 132.294129 l
353.104457 135.988496 l
353.232 135.684143 l
353.487086 128.066106 l
353.614629 136.623279 l
353.742171 135.081311 l
353.869714 131.723084 l
353.997257 131.540483 l
354.252343 136.99559 l
354.379886 124.680885 l
354.634971 135.979072 l
354.762514 133.518022 l
354.890057 135.025562 l
355.0176 128.375221 l
355.145143 135.289179 l
355.400229 132.220309 l
355.527771 134.995905 l
355.655314 134.162895 l
355.782857 130.362906 l
355.9104 130.108346 l
356.037943 131.575212 l
356.165486 130.863999 l
356.293029 132.748166 l
356.420571 136.537307 l
356.548114 130.7656 l
356.675657 136.922634 l
356.8032 134.247653 l
356.930743 136.538776 l
357.058286 130.15802 l
357.440914 138.142634 l
357.696 129.102838 l
357.823543 130.086742 l
357.951086 136.135705 l
358.078629 136.588433 l
358.333714 129.837414 l
358.461257 134.102174 l
358.5888 133.23399 l
358.716343 133.681407 l
358.843886 135.258977 l
358.971429 129.980299 l
359.098971 135.791285 l
359.226514 133.5036 l
359.354057 134.464973 l
359.4816 132.082466 l
359.609143 125.398332 l
359.736686 137.771947 l
359.864229 134.755946 l
359.991771 136.538556 l
360.119314 135.474863 l
360.246857 132.570316 l
360.3744 132.753441 l
360.501943 134.811232 l
360.757029 126.886526 l
360.884571 135.703228 l
361.012114 135.289887 l
361.139657 136.521625 l
361.2672 134.675703 l
361.394743 131.066058 l
361.522286 135.551077 l
361.649829 129.076106 l
361.777371 132.610446 l
361.904914 126.56285 l
362.032457 135.440132 l
362.16 132.034842 l
362.287543 134.911948 l
362.415086 131.917134 l
362.542629 132.194715 l
362.670171 128.178092 l
362.797714 136.937003 l
363.0528 132.272785 l
363.180343 137.55474 l
363.435429 131.120535 l
363.562971 132.529797 l
363.690514 132.397349 l
363.9456 133.429087 l
364.073143 130.472626 l
364.200686 134.450097 l
364.455771 129.391651 l
364.583314 138.963671 l
364.710857 131.354563 l
364.8384 135.456346 l
364.965943 131.848406 l
365.093486 133.143656 l
365.221029 132.781627 l
365.348571 132.787472 l
365.476114 133.471873 l
365.603657 129.726945 l
365.986286 139.064362 l
366.113829 132.789173 l
366.241371 132.432797 l
366.496457 134.617692 l
366.624 133.289762 l
366.879086 136.964973 l
367.006629 133.112905 l
367.134171 137.711366 l
367.389257 132.948183 l
367.5168 136.727268 l
367.644343 137.020089 l
367.771886 133.972116 l
368.026971 135.752797 l
368.282057 131.169756 l
368.4096 138.615683 l
368.537143 136.421103 l
368.664686 131.80593 l
368.792229 133.693367 l
368.919771 130.732881 l
369.174857 133.757099 l
369.3024 133.700986 l
369.429943 134.901093 l
369.557486 133.413686 l
369.685029 136.091161 l
370.067657 131.72194 l
370.322743 134.23293 l
370.450286 134.532542 l
370.577829 135.714279 l
370.705371 130.798457 l
370.832914 131.88 l
370.960457 129.879153 l
371.088 134.475124 l
371.215543 133.102168 l
371.343086 138.909223 l
371.470629 133.461099 l
371.598171 134.153512 l
371.853257 136.215686 l
372.108343 131.309096 l
372.363429 135.365265 l
372.490971 130.640227 l
372.746057 134.344069 l
372.8736 132.073046 l
373.001143 138.248852 l
373.128686 136.344108 l
373.256229 128.69423 l
373.383771 137.864195 l
373.511314 130.621412 l
373.7664 133.284543 l
373.893943 131.568639 l
374.021486 132.50854 l
374.149029 134.676028 l
374.276571 134.761663 l
374.404114 137.351678 l
374.6592 135.214889 l
374.786743 136.928905 l
374.914286 128.959135 l
375.041829 134.506283 l
375.169371 129.547827 l
375.296914 135.186919 l
375.679543 132.068504 l
375.807086 133.8551 l
375.934629 127.946729 l
376.062171 133.338153 l
376.189714 131.774364 l
376.317257 135.793092 l
376.699886 129.447237 l
376.954971 135.101649 l
377.082514 126.398696 l
377.3376 135.85361 l
377.465143 136.431104 l
377.592686 130.102758 l
377.720229 135.281433 l
377.847771 132.575693 l
378.102857 133.443141 l
378.2304 132.145856 l
378.357943 137.692027 l
378.485486 132.746811 l
378.613029 132.379658 l
378.740571 137.00972 l
378.995657 133.063345 l
379.250743 133.134802 l
379.378286 134.990599 l
379.505829 131.282866 l
379.633371 131.110675 l
379.760914 138.813076 l
379.888457 132.37779 l
380.016 134.131744 l
380.143543 133.104653 l
380.271086 135.920789 l
380.398629 128.977717 l
380.526171 134.395082 l
380.653714 131.914443 l
380.781257 132.81777 l
380.9088 134.552235 l
381.036343 128.31594 l
381.163886 131.501797 l
381.291429 125.537841 l
381.418971 131.388007 l
381.546514 131.20166 l
381.674057 130.53038 l
381.929143 133.249453 l
382.056686 129.201066 l
382.184229 135.132865 l
382.311771 132.780424 l
382.439314 133.677182 l
382.566857 126.876617 l
382.6944 136.044065 l
382.821943 131.601018 l
382.949486 134.955575 l
383.077029 129.146328 l
383.204571 134.075757 l
383.5872 129.757733 l
383.714743 135.645409 l
383.842286 136.227811 l
384.097371 128.133821 l
384.224914 129.410368 l
384.352457 135.784833 l
384.607543 127.0943 l
384.735086 128.733868 l
384.862629 134.239974 l
385.117714 126.344923 l
385.245257 134.218467 l
385.3728 132.853165 l
385.500343 134.444277 l
385.627886 130.524597 l
385.755429 135.887503 l
385.882971 129.52266 l
386.010514 130.466625 l
386.138057 129.125242 l
386.2656 131.335355 l
386.393143 130.744057 l
386.520686 129.125812 l
386.648229 131.931705 l
386.775771 130.492482 l
386.903314 136.961142 l
387.030857 131.573506 l
387.285943 133.37157 l
387.413486 129.553805 l
387.541029 132.532529 l
387.668571 130.473624 l
387.923657 137.609974 l
388.0512 132.621854 l
388.178743 134.786206 l
388.306286 131.093066 l
388.433829 135.006479 l
388.561371 134.722004 l
388.688914 130.128118 l
388.816457 130.916251 l
389.071543 135.980491 l
389.199086 130.128274 l
389.326629 130.230372 l
389.581714 134.3096 l
389.709257 135.009994 l
389.8368 128.495538 l
389.964343 134.676385 l
390.091886 134.770831 l
390.219429 135.250034 l
390.346971 126.612208 l
390.474514 136.691013 l
390.602057 131.165325 l
390.7296 131.144192 l
390.857143 132.104014 l
390.984686 134.983167 l
391.112229 127.859835 l
391.367314 135.461828 l
391.494857 126.080589 l
391.6224 131.425377 l
391.749943 131.328332 l
391.877486 129.463664 l
392.132571 131.542007 l
392.260114 132.331649 l
392.387657 134.073186 l
392.5152 131.447745 l
392.770286 134.863433 l
392.897829 129.450861 l
393.025371 135.302977 l
393.280457 130.823597 l
393.408 132.154126 l
393.535543 129.554819 l
393.663086 133.817869 l
394.045714 129.474918 l
394.173257 134.759699 l
394.3008 132.75177 l
394.428343 134.177934 l
394.555886 128.718631 l
394.683429 130.685496 l
394.810971 135.322313 l
394.938514 133.565057 l
395.066057 127.373102 l
395.321143 135.350754 l
395.448686 129.944685 l
395.576229 131.722763 l
395.703771 125.857143 l
395.831314 133.165031 l
395.958857 130.745368 l
396.0864 130.623351 l
396.213943 128.881887 l
396.341486 134.972863 l
396.596571 128.201623 l
396.724114 132.093638 l
396.851657 128.431349 l
396.9792 137.287788 l
397.106743 129.352777 l
397.234286 131.104316 l
397.361829 136.200062 l
397.489371 130.028018 l
397.616914 129.624393 l
397.744457 135.692585 l
397.872 133.423814 l
397.999543 134.944223 l
398.127086 130.81469 l
398.382171 135.817614 l
398.509714 134.373353 l
398.637257 131.337492 l
398.7648 134.928123 l
398.892343 132.694669 l
399.147429 134.290071 l
399.274971 134.067348 l
399.402514 133.071066 l
399.530057 135.364217 l
399.785143 131.98378 l
399.912686 133.088981 l
400.040229 135.64987 l
400.167771 133.376863 l
400.422857 127.901485 l
400.5504 130.616713 l
400.677943 136.509058 l
400.933029 128.760235 l
401.060571 135.931727 l
401.188114 135.272314 l
401.315657 125.980077 l
401.4432 131.957757 l
401.570743 132.496116 l
401.698286 136.213101 l
401.825829 132.027082 l
401.953371 135.355853 l
402.080914 131.506506 l
402.208457 133.014245 l
402.336 132.28841 l
402.463543 134.505167 l
402.591086 131.879087 l
402.718629 133.599316 l
402.846171 129.00138 l
402.973714 137.801344 l
403.2288 131.796138 l
403.356343 133.88583 l
403.483886 130.069675 l
403.611429 137.990242 l
403.866514 132.317857 l
403.994057 132.366912 l
404.1216 136.112979 l
404.376686 132.858848 l
404.504229 134.852991 l
404.631771 133.050843 l
404.759314 136.347142 l
404.886857 135.396114 l
405.0144 132.917522 l
405.141943 134.272804 l
405.269486 131.80358 l
405.397029 137.177673 l
405.524571 137.781682 l
405.779657 132.023223 l
406.034743 135.30591 l
406.162286 129.532413 l
406.289829 129.937462 l
406.544914 137.03841 l
406.8 133.242816 l
406.927543 133.178677 l
407.055086 136.337943 l
407.182629 131.055096 l
407.437714 134.165227 l
407.565257 137.354304 l
407.6928 133.504515 l
407.820343 135.414452 l
407.947886 132.889026 l
408.202971 135.186008 l
408.330514 135.884957 l
408.458057 133.068744 l
408.5856 136.152351 l
408.713143 132.900075 l
408.840686 134.878924 l
409.095771 133.067991 l
409.223314 137.551964 l
409.4784 131.566688 l
409.733486 137.231668 l
409.861029 130.204685 l
409.988571 134.841392 l
410.116114 131.498568 l
410.243657 137.977444 l
410.3712 134.166988 l
410.498743 137.646299 l
410.626286 131.379992 l
410.881371 139.792144 l
411.136457 130.819462 l
411.264 137.762642 l
411.519086 136.99513 l
411.646629 135.587631 l
411.774171 131.585462 l
411.901714 135.11355 l
412.029257 132.517658 l
412.1568 135.540145 l
412.411886 133.138729 l
412.539429 141.810039 l
412.794514 131.262976 l
413.177143 140.640744 l
413.304686 132.821278 l
413.432229 135.978091 l
413.559771 133.109902 l
413.814857 135.888973 l
413.9424 136.534996 l
414.069943 132.737738 l
414.325029 137.221353 l
414.452571 137.978276 l
414.580114 137.211968 l
414.707657 134.579619 l
414.8352 140.314416 l
414.962743 135.713051 l
415.090286 136.503648 l
415.217829 135.153217 l
415.345371 136.49864 l
415.472914 133.05957 l
415.600457 137.910122 l
415.728 136.239801 l
415.855543 142.173959 l
416.110629 130.961021 l
416.238171 139.962667 l
416.365714 139.698254 l
416.6208 132.817728 l
416.748343 137.642128 l
417.003429 134.877536 l
417.130971 132.413848 l
417.386057 136.998545 l
417.5136 132.697157 l
417.641143 132.345597 l
417.896229 139.318562 l
418.023771 131.615456 l
418.151314 139.473754 l
418.4064 133.241102 l
418.533943 140.492701 l
418.661486 134.730335 l
418.789029 136.610499 l
418.916571 134.155177 l
419.044114 135.087602 l
419.171657 134.204355 l
419.426743 139.310086 l
419.681829 134.02754 l
420.064457 140.246552 l
420.192 137.971159 l
420.319543 132.467903 l
420.574629 136.132347 l
420.702171 137.103583 l
420.957257 135.291527 l
421.0848 140.856175 l
421.212343 133.182858 l
421.339886 140.811168 l
421.467429 137.748059 l
421.594971 140.363646 l
421.850057 133.798701 l
421.9776 138.17842 l
422.105143 138.283163 l
422.232686 133.485812 l
422.360229 139.576683 l
422.487771 136.543501 l
422.615314 137.952543 l
422.742857 134.03759 l
422.8704 137.217173 l
422.997943 133.365191 l
423.125486 135.981176 l
423.253029 135.890387 l
423.380571 133.812161 l
423.508114 139.051545 l
423.635657 134.343475 l
423.7632 138.719936 l
424.145829 133.456874 l
424.273371 136.671891 l
424.400914 136.276242 l
424.528457 138.414093 l
424.656 134.435985 l
424.783543 134.488342 l
425.038629 137.033784 l
425.166171 133.528139 l
425.293714 137.244511 l
425.421257 134.185907 l
425.676343 136.79475 l
425.803886 133.532341 l
425.931429 133.489386 l
426.058971 137.303785 l
426.186514 134.814383 l
426.314057 136.191264 l
426.4416 134.2831 l
426.569143 136.671692 l
426.696686 134.683653 l
426.824229 135.331832 l
426.951771 132.193268 l
427.079314 137.609133 l
427.206857 133.556267 l
427.3344 135.761219 l
427.461943 135.702139 l
427.717029 138.136053 l
427.844571 131.15426 l
428.099657 135.610671 l
428.2272 133.621888 l
428.354743 135.624776 l
428.609829 131.602224 l
428.737371 136.947485 l
428.864914 135.948765 l
428.992457 137.354517 l
429.12 133.649294 l
429.247543 136.576949 l
429.375086 131.022922 l
429.502629 139.998775 l
429.630171 133.611088 l
429.757714 138.859824 l
429.885257 139.301023 l
430.140343 136.840277 l
430.267886 138.10251 l
430.395429 131.389515 l
430.522971 137.901591 l
430.650514 132.748468 l
430.9056 137.216843 l
431.033143 137.048732 l
431.288229 135.750888 l
431.415771 136.112384 l
431.543314 138.834688 l
431.670857 133.793703 l
431.7984 135.818038 l
431.925943 133.195808 l
432.053486 139.561922 l
432.308571 134.728826 l
432.6912 138.538209 l
432.818743 132.885614 l
433.328914 140.874595 l
433.456457 129.02134 l
433.711543 139.115123 l
433.839086 130.890891 l
433.966629 138.809676 l
434.094171 134.924715 l
434.349257 138.806743 l
434.4768 134.404246 l
434.604343 139.750163 l
434.731886 135.900502 l
434.859429 135.63597 l
434.986971 136.58801 l
435.242057 139.471588 l
435.497143 131.834272 l
435.624686 137.70846 l
435.752229 138.153317 l
435.879771 131.782777 l
436.134857 137.249179 l
436.2624 138.755377 l
436.389943 132.412358 l
436.517486 138.042831 l
436.645029 134.684049 l
436.772571 138.976582 l
437.027657 133.049714 l
437.1552 135.400818 l
437.282743 135.450263 l
437.410286 135.359544 l
437.665371 133.958982 l
437.792914 139.418525 l
438.048 138.289263 l
438.175543 132.812647 l
438.303086 140.215389 l
438.430629 138.55711 l
438.558171 139.784686 l
438.813257 131.86652 l
438.9408 138.637543 l
439.068343 138.762276 l
439.195886 131.276814 l
439.323429 138.599127 l
439.450971 139.436467 l
439.706057 135.785887 l
439.961143 139.152595 l
440.088686 134.925655 l
440.216229 137.637923 l
440.343771 136.266197 l
440.471314 136.403858 l
440.598857 130.20914 l
440.7264 139.421519 l
440.853943 134.860057 l
440.981486 137.214627 l
441.109029 133.102334 l
441.364114 139.023592 l
441.491657 139.169156 l
441.6192 132.934029 l
441.746743 135.982964 l
441.874286 134.817909 l
442.001829 135.240216 l
442.256914 138.169622 l
442.384457 132.466915 l
442.512 139.138401 l
442.639543 135.49755 l
442.767086 136.524171 l
442.894629 138.905787 l
443.022171 136.157178 l
443.277257 139.95854 l
443.4048 138.293111 l
443.532343 139.096989 l
443.659886 137.273959 l
443.787429 139.250146 l
443.914971 135.29831 l
444.042514 138.051122 l
444.170057 138.266931 l
444.2976 136.6773 l
444.425143 141.703535 l
444.552686 140.714607 l
444.807771 136.55895 l
444.935314 139.143019 l
445.062857 139.258771 l
445.1904 137.285283 l
445.317943 140.395945 l
445.573029 138.065465 l
445.700571 134.813955 l
445.828114 136.126987 l
445.955657 142.945593 l
446.0832 135.976866 l
446.210743 139.600168 l
446.338286 136.178143 l
446.465829 137.572741 l
446.593371 135.400763 l
446.720914 136.239246 l
446.848457 138.222985 l
446.976 133.461924 l
447.103543 140.204962 l
447.358629 135.317883 l
447.486171 138.187711 l
447.613714 136.208088 l
447.8688 136.819789 l
447.996343 136.742132 l
448.123886 141.362273 l
448.251429 140.160348 l
448.378971 137.181756 l
448.506514 138.706228 l
448.889143 135.763687 l
449.016686 144.160319 l
449.271771 133.642982 l
449.526857 139.224988 l
449.6544 139.211207 l
449.781943 138.53278 l
449.909486 135.540217 l
450.037029 142.250099 l
450.164571 138.405364 l
450.292114 143.219858 l
450.5472 136.447677 l
450.802286 138.704871 l
450.929829 135.777503 l
451.057371 137.432253 l
451.184914 135.643323 l
451.312457 142.292335 l
451.44 134.740345 l
451.567543 136.145759 l
451.695086 135.013176 l
451.822629 142.945306 l
451.950171 136.45988 l
452.077714 138.173596 l
452.205257 137.075639 l
452.3328 139.303974 l
452.460343 135.189977 l
452.715429 137.480442 l
452.970514 135.304395 l
453.098057 138.127321 l
453.353143 134.992122 l
453.480686 136.450419 l
453.608229 133.644779 l
453.735771 137.304652 l
453.863314 137.177397 l
453.990857 132.911279 l
454.1184 136.428314 l
454.245943 135.306766 l
454.373486 135.441125 l
454.501029 139.424314 l
454.756114 136.964988 l
454.883657 139.343341 l
455.138743 135.208662 l
455.266286 132.749766 l
455.393829 136.946988 l
455.521371 135.008563 l
455.648914 135.808515 l
455.776457 137.517676 l
455.904 137.011061 l
456.159086 132.355201 l
456.286629 138.885819 l
456.414171 131.370092 l
456.669257 139.198192 l
456.7968 136.022993 l
456.924343 137.373422 l
457.051886 132.903559 l
457.179429 135.941783 l
457.306971 134.870109 l
457.562057 140.117882 l
457.6896 137.186627 l
457.817143 137.696401 l
457.944686 132.629037 l
458.072229 141.545555 l
458.199771 134.597389 l
458.454857 136.410607 l
458.5824 136.599275 l
458.709943 133.574547 l
458.837486 136.381942 l
458.965029 134.000834 l
459.092571 134.971562 l
459.220114 134.513186 l
459.347657 135.032555 l
459.4752 136.611049 l
459.602743 136.129231 l
459.857829 132.27246 l
459.985371 131.009159 l
460.240457 138.892283 l
460.368 130.923399 l
460.623086 137.523793 l
460.750629 133.613097 l
460.878171 133.228034 l
461.005714 135.563 l
461.133257 134.275288 l
461.2608 138.314058 l
461.515886 134.000002 l
461.770971 138.381657 l
461.898514 131.423779 l
462.026057 140.874359 l
462.1536 137.215489 l
462.408686 136.509577 l
462.536229 138.093064 l
462.663771 138.059019 l
462.791314 141.488152 l
462.918857 135.182303 l
463.173943 137.755107 l
463.301486 136.193144 l
463.429029 136.719415 l
463.556571 135.773506 l
463.684114 130.311479 l
463.811657 142.716562 l
463.9392 132.665683 l
464.066743 140.131538 l
464.194286 133.604644 l
464.321829 138.55719 l
464.449371 131.196925 l
464.576914 142.924566 l
464.704457 136.02725 l
464.959543 137.439072 l
465.087086 136.923024 l
465.214629 137.169889 l
465.342171 138.589644 l
465.469714 135.574179 l
465.597257 140.698542 l
465.852343 132.016132 l
466.107429 138.920121 l
466.234971 137.722546 l
466.362514 135.407139 l
466.490057 137.650991 l
466.6176 134.824371 l
466.745143 138.358023 l
467.000229 133.865995 l
467.255314 139.908277 l
467.5104 135.807557 l
467.637943 133.78517 l
467.765486 139.569885 l
467.893029 138.232691 l
468.020571 133.442738 l
468.148114 134.746557 l
468.275657 141.248869 l
468.4032 136.656464 l
468.530743 140.21854 l
468.658286 135.092604 l
468.785829 135.828154 l
468.913371 141.549461 l
469.040914 134.561963 l
469.168457 136.3905 l
469.296 133.190983 l
469.423543 138.317959 l
469.678629 134.570741 l
469.933714 138.081622 l
470.1888 133.779027 l
470.316343 135.346396 l
470.571429 139.083594 l
470.698971 140.976359 l
470.826514 134.635892 l
470.954057 139.237264 l
471.0816 134.041071 l
471.209143 139.632968 l
471.336686 136.137293 l
471.464229 140.90366 l
471.719314 137.998221 l
471.846857 134.709696 l
472.357029 140.417195 l
472.612114 132.481038 l
472.739657 138.586874 l
472.994743 135.553151 l
473.122286 136.541057 l
473.249829 135.224493 l
473.377371 136.617712 l
473.632457 133.422305 l
473.76 136.377564 l
473.887543 129.448996 l
474.015086 135.783781 l
474.142629 135.510803 l
474.270171 137.396209 l
474.397714 133.827482 l
474.525257 139.716031 l
474.6528 132.492021 l
475.035429 139.176398 l
475.162971 138.964961 l
475.290514 134.417042 l
475.418057 141.192898 l
475.5456 137.482291 l
475.673143 140.37722 l
475.800686 136.142128 l
475.928229 140.640635 l
476.055771 139.522379 l
476.310857 134.282518 l
476.4384 138.017218 l
476.565943 135.519631 l
476.693486 139.212245 l
476.821029 134.504226 l
476.948571 141.749846 l
477.076114 137.824368 l
477.203657 139.63321 l
477.3312 136.6879 l
477.458743 139.434212 l
477.586286 135.175068 l
477.968914 140.652137 l
478.224 136.835982 l
478.351543 140.037202 l
478.479086 136.701254 l
478.606629 141.93912 l
478.861714 137.82284 l
478.989257 143.598801 l
479.244343 134.412467 l
479.371886 139.78384 l
479.499429 139.263797 l
479.626971 134.347281 l
479.754514 140.250739 l
479.882057 139.565216 l
480.0096 140.577767 l
480.137143 138.661189 l
480.264686 140.112448 l
480.519771 138.706735 l
480.774857 142.748663 l
480.9024 138.663317 l
481.029943 138.965766 l
481.285029 142.385218 l
481.540114 134.969306 l
481.667657 140.560838 l
481.7952 139.379658 l
481.922743 142.290145 l
482.050286 138.305868 l
482.305371 140.426952 l
482.432914 139.869157 l
482.560457 140.056216 l
482.688 139.053139 l
482.943086 140.329163 l
483.070629 140.338297 l
483.198171 141.575263 l
483.325714 136.11169 l
483.453257 139.620514 l
483.5808 138.610673 l
483.835886 142.393029 l
483.963429 141.227407 l
484.090971 141.12237 l
484.218514 142.930035 l
484.346057 141.101217 l
484.4736 142.301313 l
484.601143 141.317404 l
484.728686 139.195769 l
484.856229 142.797013 l
484.983771 139.670818 l
485.111314 140.256982 l
485.238857 141.471431 l
485.3664 138.15072 l
485.621486 137.421581 l
485.749029 141.453683 l
485.876571 141.923403 l
486.131657 138.352065 l
486.2592 140.956622 l
486.514286 137.251221 l
486.641829 141.02953 l
486.896914 141.497536 l
487.024457 141.655156 l
487.152 139.312002 l
487.279543 142.386362 l
487.407086 139.194084 l
487.534629 140.202383 l
487.662171 143.412504 l
487.789714 141.908273 l
488.0448 145.158221 l
488.172343 141.386773 l
488.299886 143.92594 l
488.554971 139.895819 l
488.682514 142.364291 l
488.810057 141.238668 l
489.065143 144.391758 l
489.320229 142.248797 l
489.447771 145.169352 l
489.702857 142.060761 l
489.8304 144.924343 l
490.085486 142.841384 l
490.213029 143.401027 l
490.340571 143.32193 l
490.468114 142.14471 l
490.595657 144.34361 l
490.7232 143.390835 l
490.850743 144.11729 l
490.978286 143.358771 l
491.105829 144.180151 l
491.233371 143.664684 l
491.360914 143.852009 l
491.616 145.819375 l
491.743543 144.323147 l
491.871086 146.722034 l
491.998629 140.777821 l
492.253714 144.015212 l
492.381257 142.916701 l
492.5088 145.343641 l
492.636343 145.32795 l
492.763886 144.867192 l
493.018971 142.89093 l
493.146514 144.935967 l
493.274057 143.450582 l
493.529143 144.747921 l
493.784229 143.135127 l
493.911771 145.192356 l
494.039314 144.457291 l
494.166857 146.367536 l
494.2944 145.990137 l
494.421943 146.84633 l
494.549486 146.061735 l
494.677029 146.695821 l
494.932114 146.161582 l
495.059657 146.539033 l
495.1872 146.43593 l
495.314743 146.507331 l
495.442286 145.376221 l
495.569829 145.663104 l
495.697371 146.499761 l
495.824914 145.290693 l
495.952457 146.681985 l
496.08 145.133085 l
496.207543 146.835569 l
496.207543 146.835569 l
stroke
grestore
0 setlinejoin
0.000 setgray
gsave
72 388.8 m
518.4 388.8 l
stroke
grestore
gsave
518.4 43.2 m
518.4 388.8 l
stroke
grestore
gsave
72 43.2 m
518.4 43.2 l
stroke
grestore
gsave
72 43.2 m
72 388.8 l
stroke
grestore
0.500 setlinewidth
1 setlinejoin
0 setlinecap
gsave
/o {
gsave
newpath
translate
0.5 setlinewidth
1 setlinejoin
0 setlinecap
0 0 m
2 0 l

gsave
0.000 setgray
fill
grestore
stroke
grestore
} bind def
72 77.8787 o
grestore
gsave
/o {
gsave
newpath
translate
0.5 setlinewidth
1 setlinejoin
0 setlinecap
0 0 m
-2 0 l

gsave
0.000 setgray
fill
grestore
stroke
grestore
} bind def
518.4 77.8787 o
grestore
gsave
/o {
gsave
newpath
translate
0.5 setlinewidth
1 setlinejoin
0 setlinecap
0 0 m
2 0 l

gsave
0.000 setgray
fill
grestore
stroke
grestore
} bind def
72 98.1644 o
grestore
gsave
/o {
gsave
newpath
translate
0.5 setlinewidth
1 setlinejoin
0 setlinecap
0 0 m
-2 0 l

gsave
0.000 setgray
fill
grestore
stroke
grestore
} bind def
518.4 98.1644 o
grestore
gsave
/o {
gsave
newpath
translate
0.5 setlinewidth
1 setlinejoin
0 setlinecap
0 0 m
2 0 l

gsave
0.000 setgray
fill
grestore
stroke
grestore
} bind def
72 112.557 o
grestore
gsave
/o {
gsave
newpath
translate
0.5 setlinewidth
1 setlinejoin
0 setlinecap
0 0 m
-2 0 l

gsave
0.000 setgray
fill
grestore
stroke
grestore
} bind def
518.4 112.557 o
grestore
gsave
/o {
gsave
newpath
translate
0.5 setlinewidth
1 setlinejoin
0 setlinecap
0 0 m
2 0 l

gsave
0.000 setgray
fill
grestore
stroke
grestore
} bind def
72 123.721 o
grestore
gsave
/o {
gsave
newpath
translate
0.5 setlinewidth
1 setlinejoin
0 setlinecap
0 0 m
-2 0 l

gsave
0.000 setgray
fill
grestore
stroke
grestore
} bind def
518.4 123.721 o
grestore
gsave
/o {
gsave
newpath
translate
0.5 setlinewidth
1 setlinejoin
0 setlinecap
0 0 m
2 0 l

gsave
0.000 setgray
fill
grestore
stroke
grestore
} bind def
72 132.843 o
grestore
gsave
/o {
gsave
newpath
translate
0.5 setlinewidth
1 setlinejoin
0 setlinecap
0 0 m
-2 0 l

gsave
0.000 setgray
fill
grestore
stroke
grestore
} bind def
518.4 132.843 o
grestore
gsave
/o {
gsave
newpath
translate
0.5 setlinewidth
1 setlinejoin
0 setlinecap
0 0 m
2 0 l

gsave
0.000 setgray
fill
grestore
stroke
grestore
} bind def
72 140.555 o
grestore
gsave
/o {
gsave
newpath
translate
0.5 setlinewidth
1 setlinejoin
0 setlinecap
0 0 m
-2 0 l

gsave
0.000 setgray
fill
grestore
stroke
grestore
} bind def
518.4 140.555 o
grestore
gsave
/o {
gsave
newpath
translate
0.5 setlinewidth
1 setlinejoin
0 setlinecap
0 0 m
2 0 l

gsave
0.000 setgray
fill
grestore
stroke
grestore
} bind def
72 147.236 o
grestore
gsave
/o {
gsave
newpath
translate
0.5 setlinewidth
1 setlinejoin
0 setlinecap
0 0 m
-2 0 l

gsave
0.000 setgray
fill
grestore
stroke
grestore
} bind def
518.4 147.236 o
grestore
gsave
/o {
gsave
newpath
translate
0.5 setlinewidth
1 setlinejoin
0 setlinecap
0 0 m
2 0 l

gsave
0.000 setgray
fill
grestore
stroke
grestore
} bind def
72 153.129 o
grestore
gsave
/o {
gsave
newpath
translate
0.5 setlinewidth
1 setlinejoin
0 setlinecap
0 0 m
-2 0 l

gsave
0.000 setgray
fill
grestore
stroke
grestore
} bind def
518.4 153.129 o
grestore
gsave
/o {
gsave
newpath
translate
0.5 setlinewidth
1 setlinejoin
0 setlinecap
0 0 m
2 0 l

gsave
0.000 setgray
fill
grestore
stroke
grestore
} bind def
72 193.079 o
grestore
gsave
/o {
gsave
newpath
translate
0.5 setlinewidth
1 setlinejoin
0 setlinecap
0 0 m
-2 0 l

gsave
0.000 setgray
fill
grestore
stroke
grestore
} bind def
518.4 193.079 o
grestore
gsave
/o {
gsave
newpath
translate
0.5 setlinewidth
1 setlinejoin
0 setlinecap
0 0 m
2 0 l

gsave
0.000 setgray
fill
grestore
stroke
grestore
} bind def
72 213.364 o
grestore
gsave
/o {
gsave
newpath
translate
0.5 setlinewidth
1 setlinejoin
0 setlinecap
0 0 m
-2 0 l

gsave
0.000 setgray
fill
grestore
stroke
grestore
} bind def
518.4 213.364 o
grestore
gsave
/o {
gsave
newpath
translate
0.5 setlinewidth
1 setlinejoin
0 setlinecap
0 0 m
2 0 l

gsave
0.000 setgray
fill
grestore
stroke
grestore
} bind def
72 227.757 o
grestore
gsave
/o {
gsave
newpath
translate
0.5 setlinewidth
1 setlinejoin
0 setlinecap
0 0 m
-2 0 l

gsave
0.000 setgray
fill
grestore
stroke
grestore
} bind def
518.4 227.757 o
grestore
gsave
/o {
gsave
newpath
translate
0.5 setlinewidth
1 setlinejoin
0 setlinecap
0 0 m
2 0 l

gsave
0.000 setgray
fill
grestore
stroke
grestore
} bind def
72 238.921 o
grestore
gsave
/o {
gsave
newpath
translate
0.5 setlinewidth
1 setlinejoin
0 setlinecap
0 0 m
-2 0 l

gsave
0.000 setgray
fill
grestore
stroke
grestore
} bind def
518.4 238.921 o
grestore
gsave
/o {
gsave
newpath
translate
0.5 setlinewidth
1 setlinejoin
0 setlinecap
0 0 m
2 0 l

gsave
0.000 setgray
fill
grestore
stroke
grestore
} bind def
72 248.043 o
grestore
gsave
/o {
gsave
newpath
translate
0.5 setlinewidth
1 setlinejoin
0 setlinecap
0 0 m
-2 0 l

gsave
0.000 setgray
fill
grestore
stroke
grestore
} bind def
518.4 248.043 o
grestore
gsave
/o {
gsave
newpath
translate
0.5 setlinewidth
1 setlinejoin
0 setlinecap
0 0 m
2 0 l

gsave
0.000 setgray
fill
grestore
stroke
grestore
} bind def
72 255.755 o
grestore
gsave
/o {
gsave
newpath
translate
0.5 setlinewidth
1 setlinejoin
0 setlinecap
0 0 m
-2 0 l

gsave
0.000 setgray
fill
grestore
stroke
grestore
} bind def
518.4 255.755 o
grestore
gsave
/o {
gsave
newpath
translate
0.5 setlinewidth
1 setlinejoin
0 setlinecap
0 0 m
2 0 l

gsave
0.000 setgray
fill
grestore
stroke
grestore
} bind def
72 262.436 o
grestore
gsave
/o {
gsave
newpath
translate
0.5 setlinewidth
1 setlinejoin
0 setlinecap
0 0 m
-2 0 l

gsave
0.000 setgray
fill
grestore
stroke
grestore
} bind def
518.4 262.436 o
grestore
gsave
/o {
gsave
newpath
translate
0.5 setlinewidth
1 setlinejoin
0 setlinecap
0 0 m
2 0 l

gsave
0.000 setgray
fill
grestore
stroke
grestore
} bind def
72 268.329 o
grestore
gsave
/o {
gsave
newpath
translate
0.5 setlinewidth
1 setlinejoin
0 setlinecap
0 0 m
-2 0 l

gsave
0.000 setgray
fill
grestore
stroke
grestore
} bind def
518.4 268.329 o
grestore
gsave
/o {
gsave
newpath
translate
0.5 setlinewidth
1 setlinejoin
0 setlinecap
0 0 m
2 0 l

gsave
0.000 setgray
fill
grestore
stroke
grestore
} bind def
72 308.279 o
grestore
gsave
/o {
gsave
newpath
translate
0.5 setlinewidth
1 setlinejoin
0 setlinecap
0 0 m
-2 0 l

gsave
0.000 setgray
fill
grestore
stroke
grestore
} bind def
518.4 308.279 o
grestore
gsave
/o {
gsave
newpath
translate
0.5 setlinewidth
1 setlinejoin
0 setlinecap
0 0 m
2 0 l

gsave
0.000 setgray
fill
grestore
stroke
grestore
} bind def
72 328.564 o
grestore
gsave
/o {
gsave
newpath
translate
0.5 setlinewidth
1 setlinejoin
0 setlinecap
0 0 m
-2 0 l

gsave
0.000 setgray
fill
grestore
stroke
grestore
} bind def
518.4 328.564 o
grestore
gsave
/o {
gsave
newpath
translate
0.5 setlinewidth
1 setlinejoin
0 setlinecap
0 0 m
2 0 l

gsave
0.000 setgray
fill
grestore
stroke
grestore
} bind def
72 342.957 o
grestore
gsave
/o {
gsave
newpath
translate
0.5 setlinewidth
1 setlinejoin
0 setlinecap
0 0 m
-2 0 l

gsave
0.000 setgray
fill
grestore
stroke
grestore
} bind def
518.4 342.957 o
grestore
gsave
/o {
gsave
newpath
translate
0.5 setlinewidth
1 setlinejoin
0 setlinecap
0 0 m
2 0 l

gsave
0.000 setgray
fill
grestore
stroke
grestore
} bind def
72 354.121 o
grestore
gsave
/o {
gsave
newpath
translate
0.5 setlinewidth
1 setlinejoin
0 setlinecap
0 0 m
-2 0 l

gsave
0.000 setgray
fill
grestore
stroke
grestore
} bind def
518.4 354.121 o
grestore
gsave
/o {
gsave
newpath
translate
0.5 setlinewidth
1 setlinejoin
0 setlinecap
0 0 m
2 0 l

gsave
0.000 setgray
fill
grestore
stroke
grestore
} bind def
72 363.243 o
grestore
gsave
/o {
gsave
newpath
translate
0.5 setlinewidth
1 setlinejoin
0 setlinecap
0 0 m
-2 0 l

gsave
0.000 setgray
fill
grestore
stroke
grestore
} bind def
518.4 363.243 o
grestore
gsave
/o {
gsave
newpath
translate
0.5 setlinewidth
1 setlinejoin
0 setlinecap
0 0 m
2 0 l

gsave
0.000 setgray
fill
grestore
stroke
grestore
} bind def
72 370.955 o
grestore
gsave
/o {
gsave
newpath
translate
0.5 setlinewidth
1 setlinejoin
0 setlinecap
0 0 m
-2 0 l

gsave
0.000 setgray
fill
grestore
stroke
grestore
} bind def
518.4 370.955 o
grestore
gsave
/o {
gsave
newpath
translate
0.5 setlinewidth
1 setlinejoin
0 setlinecap
0 0 m
2 0 l

gsave
0.000 setgray
fill
grestore
stroke
grestore
} bind def
72 377.636 o
grestore
gsave
/o {
gsave
newpath
translate
0.5 setlinewidth
1 setlinejoin
0 setlinecap
0 0 m
-2 0 l

gsave
0.000 setgray
fill
grestore
stroke
grestore
} bind def
518.4 377.636 o
grestore
gsave
/o {
gsave
newpath
translate
0.5 setlinewidth
1 setlinejoin
0 setlinecap
0 0 m
2 0 l

gsave
0.000 setgray
fill
grestore
stroke
grestore
} bind def
72 383.529 o
grestore
gsave
/o {
gsave
newpath
translate
0.5 setlinewidth
1 setlinejoin
0 setlinecap
0 0 m
-2 0 l

gsave
0.000 setgray
fill
grestore
stroke
grestore
} bind def
518.4 383.529 o
grestore
1.000 setlinewidth
0 setlinejoin
gsave
315.26625 340.858125 m
511.2 340.858125 l
511.2 381.6 l
315.26625 381.6 l
cl
gsave
1.000 setgray
fill
grestore
stroke
grestore
1 setlinejoin
2 setlinecap
0.000 0.000 1.000 setrgbcolor
gsave
325.34625 360.94875 m
345.50625 360.94875 l
stroke
grestore
0.000 setgray
/BitstreamVeraSans-Roman findfont
14.400 scalefont
setfont
gsave
361.346250 365.199375 translate
0.000000 rotate
0.000000 0.000000 m /C glyphshow
10.048141 0.000000 m /r glyphshow
15.964600 0.000000 m /o glyphshow
24.769012 0.000000 m /s glyphshow
32.266464 0.000000 m /s glyphshow
39.763916 0.000000 m /hyphen glyphshow
44.956619 0.000000 m /e glyphshow
53.810226 0.000000 m /n glyphshow
62.930847 0.000000 m /t glyphshow
68.573257 0.000000 m /r glyphshow
74.489716 0.000000 m /o glyphshow
83.294128 0.000000 m /p glyphshow
92.428802 0.000000 m /y glyphshow
grestore
gsave
361.346250 349.524375 translate
0.000000 rotate
0.000000 0.000000 m /r glyphshow
5.916458 0.000000 m /e glyphshow
14.770065 0.000000 m /c glyphshow
22.682098 0.000000 m /o glyphshow
31.486511 0.000000 m /n glyphshow
40.607132 0.000000 m /s glyphshow
48.104584 0.000000 m /t glyphshow
53.746994 0.000000 m /r glyphshow
59.663452 0.000000 m /u glyphshow
68.784073 0.000000 m /c glyphshow
76.696106 0.000000 m /t glyphshow
82.338516 0.000000 m /i glyphshow
86.336685 0.000000 m /o glyphshow
95.141098 0.000000 m /n glyphshow
104.261719 0.000000 m /space glyphshow
108.836075 0.000000 m /e glyphshow
117.689682 0.000000 m /r glyphshow
123.606140 0.000000 m /r glyphshow
129.522598 0.000000 m /o glyphshow
138.327011 0.000000 m /r glyphshow
grestore

end
showpage
